<?xml version="1.0" encoding="UTF-8" standalone="no"?>
<!-- Created with Inkscape (http://www.inkscape.org/) -->

<svg
   width="108.81651mm"
   height="149.42134mm"
   viewBox="0 0 108.8165 149.42134"
   version="1.1"
   id="svg5"
   inkscape:version="1.1.2 (08b2f3d93c, 2022-04-05)"
   sodipodi:docname="dispositif1.svg"
   xmlns:inkscape="http://www.inkscape.org/namespaces/inkscape"
   xmlns:sodipodi="http://sodipodi.sourceforge.net/DTD/sodipodi-0.dtd"
   xmlns="http://www.w3.org/2000/svg"
   xmlns:svg="http://www.w3.org/2000/svg">
  <sodipodi:namedview
     id="namedview7"
     pagecolor="#ffffff"
     bordercolor="#000000"
     borderopacity="1"
     inkscape:pageshadow="0"
     inkscape:pageopacity="0"
     inkscape:pagecheckerboard="0"
     inkscape:document-units="mm"
     showgrid="false"
     inkscape:zoom="0.84096521"
     inkscape:cx="392.40625"
     inkscape:cy="362.08395"
     inkscape:window-width="1920"
     inkscape:window-height="1016"
     inkscape:window-x="0"
     inkscape:window-y="27"
     inkscape:window-maximized="1"
     inkscape:current-layer="layer1"
     inkscape:lockguides="true"
     fit-margin-top="10"
     fit-margin-left="10"
     fit-margin-right="10"
     fit-margin-bottom="10" />
  <defs
     id="defs2">
    <marker
       style="overflow:visible"
       id="Arrow1Lstart"
       refX="0"
       refY="0"
       orient="auto"
       inkscape:stockid="Arrow1Lstart"
       inkscape:isstock="true">
      <path
         transform="matrix(0.8,0,0,0.8,10,0)"
         style="fill:context-stroke;fill-rule:evenodd;stroke:context-stroke;stroke-width:1pt"
         d="M 0,0 5,-5 -12.5,0 5,5 Z"
         id="path35545" />
    </marker>
    <inkscape:perspective
       sodipodi:type="inkscape:persp3d"
       inkscape:vp_x="0 : 44.421343 : 1"
       inkscape:vp_y="0 : 1000 : 0"
       inkscape:vp_z="296.99994 : 44.421343 : 1"
       inkscape:persp3d-origin="148.49997 : 9.4213431 : 1"
       id="perspective26334" />
    <inkscape:path-effect
       effect="spiro"
       id="path-effect24654"
       is_visible="true"
       lpeversion="1" />
  </defs>
  <g
     inkscape:label="Calque 1"
     inkscape:groupmode="layer"
     id="layer1"
     transform="translate(-16.653416,-43.164186)">
    <rect
       style="fill:#ffffff;fill-opacity:1;stroke:none;stroke-width:0.0649999;stroke-linecap:square;stroke-linejoin:round;stroke-miterlimit:4;stroke-dasharray:none;stroke-dashoffset:0;stroke-opacity:1"
       id="rect83412"
       width="116.78423"
       height="155.91072"
       x="11.642451"
       y="39.997761" />
    <path
       style="fill:#ececec;stroke:#000000;stroke-width:0.193566px;stroke-linecap:butt;stroke-linejoin:miter;stroke-opacity:1"
       d="m 31.649638,154.8483 c 0.776937,-0.28804 1.565312,-0.55435 2.330816,-0.86412 2.913749,-1.17906 19.577247,-7.72492 26.182503,-10.97131 1.465153,-0.72009 2.841363,-1.56595 4.263103,-2.34752 0.656306,-0.3608 1.351676,-0.67351 1.971033,-1.07958 0.217095,-0.14233 0.216,-0.5637 0.489191,-0.5643 0.510724,-0.001 0.951078,0.33734 1.453557,0.41579 3.40341,0.53146 6.872599,0.69022 10.29568,1.1186 1.785865,0.22349 3.550997,0.56208 5.339483,0.76947 1.943487,0.22536 3.915091,0.25985 5.851148,0.52813 4.502339,0.62388 8.915654,1.68472 13.428818,2.24808 15.78268,1.97006 -2.08264,-0.41101 9.41981,0.79748 1.01478,0.1066 2.79426,0.41112 2.69523,0.66979 -0.59079,1.54312 -2.00837,1.69439 -3.78454,2.61289 -10.26121,5.30626 0.37577,-0.25029 -12.155355,5.7518 -4.963226,2.37727 -9.75249,5.0137 -14.680446,7.44443 -1.965376,0.96943 -4.005594,1.82667 -5.946631,2.83158 -1.572239,0.81398 -3.06358,1.73797 -4.584625,2.6207 -1.034645,0.60044 -2.03826,1.24016 -3.082187,1.82866 -0.210757,0.11879 -0.460301,0.17914 -0.676639,0.29034 -0.06752,0.0347 -0.08864,0.13639 -0.166825,0.14316 -0.04979,0.004 0.01881,-0.089 0,-0.12873 -0.08849,-0.18789 -0.187574,-0.37421 -0.316846,-0.54382 -0.421564,-0.5531 -0.6827,-1.26481 -1.332255,-1.61983 -1.792833,-0.9799 -3.805797,-1.64205 -5.798244,-2.27743 -4.740815,-1.51181 -5.173836,-1.18079 -9.759557,-1.78677 -1.591366,-0.21029 -3.164102,-0.51967 -4.758439,-0.71265 -11.668617,-1.41243 0.386553,0.41438 -9.534823,-1.23849 -5.67553,-0.9455 0.284381,0.18398 -4.709289,-0.94968 -0.591606,-0.13429 -1.215096,-0.16696 -1.79214,-0.3418 -1.563083,-0.47361 -3.039789,-1.29906 -4.548973,-1.87497 -0.0047,-0.002 -1.165435,-0.15393 -0.970576,-0.54527 0.291168,-0.58477 3.115152,-1.3681 3.85537,-1.58007 0.106469,-0.0305 0.246256,0.057 0.336721,0 0.273268,-0.17223 0.351494,-0.59669 0.685927,-0.64451"
       id="path24917"
       sodipodi:nodetypes="csssscssssssssssssssccsssssssscscsc" />
    <path
       style="fill:#ececec;stroke:#000000;stroke-width:0.193566px;stroke-linecap:butt;stroke-linejoin:miter;stroke-opacity:1"
       d="m 169.79592,163.30618 c 0.77693,-0.28804 1.56531,-0.55435 2.33081,-0.86412 2.91375,-1.17906 19.57725,-7.72492 26.18251,-10.97131 1.46515,-0.72009 2.84136,-1.56595 4.2631,-2.34752 0.65631,-0.3608 1.35168,-0.67351 1.97103,-1.07958 0.2171,-0.14233 0.216,-0.5637 0.48919,-0.5643 0.51073,-0.001 0.95108,0.33734 1.45356,0.41579 3.40341,0.53146 6.8726,0.69022 10.29568,1.1186 1.78587,0.22349 3.551,0.56208 5.33948,0.76947 1.94349,0.22536 3.91509,0.25985 5.85115,0.52813 4.50234,0.62388 8.91566,1.68472 13.42882,2.24808 15.78268,1.97006 -2.08264,-0.41101 9.41981,0.79748 1.01478,0.1066 2.79426,0.41112 2.69523,0.66979 -0.59079,1.54312 -2.00837,1.69439 -3.78454,2.61289 -10.26121,5.30626 0.37577,-0.25029 -12.15536,5.7518 -4.96322,2.37727 -9.75249,5.0137 -14.68044,7.44443 -1.96538,0.96943 -4.0056,1.82667 -5.94663,2.83158 -1.57224,0.81398 -3.06358,1.73797 -4.58463,2.6207 -1.03464,0.60044 -2.03826,1.24016 -3.08218,1.82866 -0.21076,0.11879 -0.46031,0.17914 -0.67664,0.29034 -0.0675,0.0347 -0.0886,0.13639 -0.16683,0.14316 -0.0498,0.004 0.0188,-0.089 0,-0.12873 -0.0885,-0.18789 -0.18757,-0.37421 -0.31684,-0.54382 -0.42157,-0.5531 -0.6827,-1.26481 -1.33226,-1.61983 -1.79283,-0.9799 -3.8058,-1.64205 -5.79824,-2.27743 -4.74082,-1.51181 -5.17384,-1.18079 -9.75956,-1.78677 -1.59137,-0.21029 -3.1641,-0.51967 -4.75844,-0.71265 -11.66862,-1.41243 0.38655,0.41438 -9.53482,-1.23849 -5.67553,-0.9455 0.28438,0.18398 -4.70929,-0.94968 -0.59161,-0.13429 -1.2151,-0.16696 -1.79214,-0.3418 -1.56308,-0.47361 -3.03979,-1.29906 -4.54897,-1.87497 -0.005,-0.002 -1.16544,-0.15393 -0.97058,-0.54527 0.29117,-0.58477 3.11515,-1.3681 3.85537,-1.58007 0.10647,-0.0305 0.24626,0.057 0.33672,0 0.27327,-0.17223 0.35149,-0.59669 0.68593,-0.64451"
       id="path24917-0"
       sodipodi:nodetypes="csssscssssssssssssssccsssssssscscsc" />
    <text
       xml:space="preserve"
       style="font-size:3.52778px;line-height:1.25;font-family:sans-serif;text-align:center;letter-spacing:0px;word-spacing:0px;text-anchor:middle;stroke-width:0.187192"
       x="230.07436"
       y="106.41164"
       id="text2630-6"><tspan
         sodipodi:role="line"
         style="font-style:normal;font-variant:normal;font-weight:normal;font-stretch:normal;font-size:3.52778px;font-family:Chemins;-inkscape-font-specification:Chemins;text-align:center;text-anchor:middle;stroke-width:0.187192"
         x="230.07436"
         y="106.41164"
         id="tspan20222">physiques</tspan></text>
    <text
       xml:space="preserve"
       style="font-size:3.52778px;line-height:1.25;font-family:sans-serif;text-align:center;letter-spacing:0px;word-spacing:0px;text-anchor:middle;white-space:pre;inline-size:30.1696;stroke-width:0.187192"
       x="38.592251"
       y="125.20123"
       id="text2630-6-1-3"
       transform="translate(35.871975,6.1447274)"><tspan
         x="38.592251"
         y="125.20123"
         id="tspan83744"><tspan
           style="font-family:Chemins;-inkscape-font-specification:Chemins"
           id="tspan83742">communauté</tspan><tspan
           y="125.20123"
           id="tspan83746"> </tspan></tspan><tspan
         x="38.592251"
         y="129.75221"
         id="tspan83750"><tspan
           style="font-family:Chemins;-inkscape-font-specification:Chemins"
           id="tspan83748">d'acteur·ices</tspan></tspan></text>
    <text
       xml:space="preserve"
       style="font-size:3.52778px;line-height:1.25;font-family:sans-serif;text-align:center;letter-spacing:0px;word-spacing:0px;text-anchor:middle;white-space:pre;inline-size:30.1696;stroke-width:0.187192"
       x="38.592251"
       y="125.20123"
       id="text2630-6-1-3-04"
       transform="translate(138.89986,4.7391809)"><tspan
         x="38.592251"
         y="125.20123"
         id="tspan83754"><tspan
           style="font-family:Chemins;-inkscape-font-specification:Chemins"
           id="tspan83752">réseau local,
</tspan></tspan><tspan
         x="38.592251"
         y="129.75221"
         id="tspan83758"><tspan
           style="font-family:Chemins;-inkscape-font-specification:Chemins"
           id="tspan83756">offline</tspan></tspan></text>
    <text
       xml:space="preserve"
       style="font-size:3.52778px;line-height:1.25;font-family:sans-serif;text-align:center;letter-spacing:0px;word-spacing:0px;text-anchor:middle;white-space:pre;inline-size:30.1696;stroke-width:0.187192"
       x="38.592251"
       y="125.20123"
       id="text2630-6-1-3-04-6"
       transform="translate(217.17467,-54.181024)"><tspan
         x="38.592251"
         y="125.20123"
         id="tspan83762"><tspan
           style="font-family:Chemins;-inkscape-font-specification:Chemins"
           id="tspan83760">réseau online</tspan></tspan></text>
    <text
       xml:space="preserve"
       style="font-size:3.52778px;line-height:1.25;font-family:sans-serif;text-align:center;letter-spacing:0px;word-spacing:0px;text-anchor:middle;white-space:pre;inline-size:66.8047;stroke-width:0.187192"
       x="38.592251"
       y="125.20123"
       id="text2630-6-1-3-04-6-2"
       transform="translate(210.59789,-82.890283)"><tspan
         x="38.592251"
         y="125.20123"
         id="tspan83766"><tspan
           style="font-family:Chemins;-inkscape-font-specification:Chemins"
           id="tspan83764">dynamique de partage à</tspan><tspan
           y="125.20123"
           id="tspan83768"> </tspan></tspan><tspan
         x="38.592251"
         y="129.75221"
         id="tspan83772"><tspan
           style="font-family:Chemins;-inkscape-font-specification:Chemins"
           id="tspan83770">l'extérieur de la communauté</tspan></tspan></text>
    <text
       xml:space="preserve"
       style="font-size:2.82222px;line-height:1.25;font-family:sans-serif;text-align:center;letter-spacing:0px;word-spacing:0px;text-anchor:middle;white-space:pre;inline-size:30.1696;stroke-width:0.187192"
       x="38.592251"
       y="125.20123"
       id="text2630-6-1-3-3"
       transform="rotate(-90,41.984844,96.482752)"><tspan
         x="38.592251"
         y="125.20123"
         id="tspan83776"><tspan
           style="font-family:Chemins;-inkscape-font-specification:Chemins"
           id="tspan83774">font émerger</tspan></tspan></text>
    <text
       xml:space="preserve"
       style="font-size:2.82222px;line-height:1.25;font-family:sans-serif;text-align:center;letter-spacing:0px;word-spacing:0px;text-anchor:middle;white-space:pre;inline-size:30.1696;stroke-width:0.187192"
       x="38.592251"
       y="125.20123"
       id="text2630-6-1-3-0"
       transform="rotate(-90,31.047434,119.38989)"><tspan
         x="38.592251"
         y="125.20123"
         id="tspan83780"><tspan
           style="font-family:Chemins;-inkscape-font-specification:Chemins"
           id="tspan83778">faire experience</tspan><tspan
           y="125.20123"
           id="tspan83782"> </tspan></tspan><tspan
         x="38.592251"
         y="128.84201"
         id="tspan83786"><tspan
           style="font-family:Chemins;-inkscape-font-specification:Chemins"
           id="tspan83784">de l'espace</tspan></tspan></text>
    <text
       xml:space="preserve"
       style="font-size:3.52778px;line-height:1.25;font-family:sans-serif;text-align:center;letter-spacing:0px;word-spacing:0px;text-anchor:middle;stroke-width:0.187192"
       x="230.44608"
       y="94.743904"
       id="text2630-6-2"><tspan
         sodipodi:role="line"
         style="font-style:normal;font-variant:normal;font-weight:normal;font-stretch:normal;font-size:3.52778px;font-family:Chemins;-inkscape-font-specification:Chemins;text-align:center;text-anchor:middle;stroke-width:0.187192"
         x="230.44608"
         y="94.743904"
         id="tspan20222-9">numériques</tspan></text>
    <text
       xml:space="preserve"
       style="font-size:4.23333px;line-height:1.25;font-family:sans-serif;text-align:center;letter-spacing:0px;word-spacing:0px;text-anchor:middle;stroke-width:0.187192"
       x="71.695274"
       y="177.00447"
       id="text2630-6-4"><tspan
         sodipodi:role="line"
         style="font-style:normal;font-variant:normal;font-weight:normal;font-stretch:normal;font-size:4.23333px;font-family:Chemins;-inkscape-font-specification:Chemins;text-align:center;text-anchor:middle;stroke-width:0.187192"
         x="71.695274"
         y="177.00447"
         id="tspan3696-2-0">Contexte local,</tspan><tspan
         sodipodi:role="line"
         style="font-style:normal;font-variant:normal;font-weight:normal;font-stretch:normal;font-size:4.23333px;font-family:Chemins;-inkscape-font-specification:Chemins;text-align:center;text-anchor:middle;stroke-width:0.187192"
         x="71.695274"
         y="182.46564"
         id="tspan20222-6">in-situ</tspan></text>
    <text
       xml:space="preserve"
       style="font-size:4.23333px;line-height:1.25;font-family:sans-serif;text-align:center;letter-spacing:0px;word-spacing:0px;text-anchor:middle;stroke-width:0.187192"
       x="71.138206"
       y="56.568626"
       id="text2630"><tspan
         sodipodi:role="line"
         id="tspan2628"
         style="font-style:normal;font-variant:normal;font-weight:normal;font-stretch:normal;font-size:4.23333px;font-family:Chemins;-inkscape-font-specification:Chemins;text-align:center;text-anchor:middle;stroke-width:0.187192"
         x="71.138206"
         y="56.568626">Dispositifs et systèmes</tspan><tspan
         sodipodi:role="line"
         style="font-style:normal;font-variant:normal;font-weight:normal;font-stretch:normal;font-size:4.23333px;font-family:Chemins;-inkscape-font-specification:Chemins;text-align:center;text-anchor:middle;stroke-width:0.187192"
         x="71.138206"
         y="62.029789"
         id="tspan2632">de partage des </tspan><tspan
         sodipodi:role="line"
         style="font-style:normal;font-variant:normal;font-weight:normal;font-stretch:normal;font-size:4.23333px;font-family:Chemins;-inkscape-font-specification:Chemins;text-align:center;text-anchor:middle;stroke-width:0.187192"
         x="71.138206"
         y="67.490952"
         id="tspan3696">connaissances</tspan></text>
    <text
       xml:space="preserve"
       style="font-size:4.23333px;line-height:1.25;font-family:sans-serif;text-align:center;letter-spacing:0px;word-spacing:0px;text-anchor:middle;stroke-width:0.187192"
       x="174.10681"
       y="94.805916"
       id="text2630-8"><tspan
         sodipodi:role="line"
         id="tspan2628-0"
         style="font-style:normal;font-variant:normal;font-weight:normal;font-stretch:normal;font-size:4.23333px;font-family:Chemins;-inkscape-font-specification:Chemins;text-align:center;text-anchor:middle;stroke-width:0.187192"
         x="174.10681"
         y="94.805916">Dispositifs et systèmes</tspan><tspan
         sodipodi:role="line"
         style="font-style:normal;font-variant:normal;font-weight:normal;font-stretch:normal;font-size:4.23333px;font-family:Chemins;-inkscape-font-specification:Chemins;text-align:center;text-anchor:middle;stroke-width:0.187192"
         x="174.10681"
         y="100.26707"
         id="tspan2632-5">de partage des </tspan><tspan
         sodipodi:role="line"
         style="font-style:normal;font-variant:normal;font-weight:normal;font-stretch:normal;font-size:4.23333px;font-family:Chemins;-inkscape-font-specification:Chemins;text-align:center;text-anchor:middle;stroke-width:0.187192"
         x="174.10681"
         y="105.72824"
         id="tspan3696-6">connaissances</tspan></text>
    <g
       id="g28341"
       transform="translate(-1.0583333,-6.7844398)">
      <path
         style="fill:none;stroke:#000000;stroke-width:0.139446;stroke-linecap:square;stroke-linejoin:round;stroke-miterlimit:4;stroke-dasharray:none;stroke-dashoffset:7.55905;stroke-opacity:1"
         id="path21173"
         d="m 74.394336,84.000161 c -0.07611,0.886186 -0.168562,1.767499 -0.228317,2.658558 -0.472639,7.048127 -0.616063,14.171621 -0.73527,21.270171 -0.118137,7.03486 -0.128413,10.84827 -0.17529,17.73178 0,0 2.049587,0.05 2.049587,0.05 v 0 c 0.05022,-6.23085 0.08068,-11.35984 0.179892,-17.64335 0.109988,-6.96574 0.235415,-13.953661 0.669795,-20.876297 0.06086,-0.969905 0.151095,-1.931735 0.226641,-2.897599 0,0 -1.987038,-0.293175 -1.987038,-0.293175 z" />
      <path
         style="fill:#ffffff;stroke:#000000;stroke-width:0.165;stroke-linecap:square;stroke-linejoin:round;stroke-miterlimit:4;stroke-dasharray:none;stroke-dashoffset:7.55905;stroke-opacity:1"
         id="path26726"
         d="m 82.54855,96.035739 c -0.0707,-0.26894 -0.113741,-0.54671 -0.212087,-0.80681 -0.397894,-1.05236 -0.994029,-2.02706 -1.569752,-2.98458 -0.999606,-1.6625 -2.08067,-3.27769 -3.138297,-4.90346 -0.504486,-0.76561 -1.045689,-1.50836 -1.468032,-2.32394 0,0 -1.854155,0.7609 -1.854155,0.7609 v 0 c 0.429104,0.88275 0.977085,1.69372 1.529085,2.50407 1.37668,2.12928 2.832915,4.23139 4.062632,6.45091 0.235035,0.42422 0.407747,0.88086 0.647478,1.30291 0,0 2.003128,0 2.003128,0 z" />
      <path
         style="fill:#ffffff;stroke:#000000;stroke-width:0.165;stroke-linecap:square;stroke-linejoin:round;stroke-miterlimit:4;stroke-dasharray:none;stroke-dashoffset:7.55905;stroke-opacity:1"
         id="path26728"
         d="m 67.735599,96.095329 c 3.072371,-3.4851 5.728216,-7.30308 8.424783,-11.07838 0,0 -1.766046,-1.0167 -1.766046,-1.0167 v 0 c -2.654271,3.69075 -5.249871,7.43669 -8.24176,10.86717 0,0 1.583023,1.22791 1.583023,1.22791 z" />
    </g>
    <path
       style="fill:none;stroke:#000000;stroke-width:0.165;stroke-linecap:butt;stroke-linejoin:miter;stroke-miterlimit:4;stroke-dasharray:none;stroke-opacity:1"
       d="m 214.87689,96.9467 c 0.76121,2.42858 0.63502,4.96413 0.63502,7.47011 0,1.76852 0.17136,3.54537 0,5.30558 -0.0399,0.41003 -0.87791,4.09102 -0.45174,4.14307 3.80306,0.46451 7.74222,0.17667 11.56839,0.17667 8.18498,0 -0.16415,-0.30129 5.06379,0.50678 2.9947,0.46288 2.85822,0.11667 5.69337,0.24376 1.43975,0.0645 2.81713,0.2081 4.26019,0.2081 0.85013,0 3.21264,0.44263 3.8662,-0.4398 0.27,-0.36456 0.15731,-2.4406 0.15731,-2.46135 0,-1.70101 0,-3.40201 0,-5.10301 0,-1.85237 -0.36798,-3.63648 -0.50949,-5.47617 -0.0797,-1.03561 0.32239,-2.98109 -0.46019,-3.76367 -0.28882,-0.28883 -6.08828,-0.0949 -6.62204,-0.0949 -5.51034,0 0.40294,0.18791 -3.28334,-0.33939 -1.22601,-0.17538 -2.47699,0 -3.71548,0 -2.52821,0 -5.05642,0 -7.58463,0 -1.83377,0 -3.66752,0 -5.50128,0 -0.53416,0 -2.11821,0.17094 -2.47881,0 -0.22283,-0.10564 -0.42485,-0.25051 -0.63727,-0.37576 z"
       id="path28256" />
    <path
       style="fill:none;stroke:#000000;stroke-width:0.157;stroke-linecap:butt;stroke-linejoin:miter;stroke-miterlimit:4;stroke-dasharray:none;stroke-opacity:1"
       d="m 239.03816,85.58587 c -4.52594,0.28028 -9.87987,-0.62544 -14.18673,0.44776 -4.11493,1.02538 -5.89188,2.44837 -8.57646,5.12908 -0.58366,0.58283 -1.15291,1.25166 -1.41232,1.9917 -0.0468,0.13353 0.024,0.2792 0,0.41671 -0.46432,2.66315 0.96804,2.93992 2.75642,4.8981 1.27558,1.3967 1.74325,1.79405 3.79223,2.54241 0.42965,0.15692 1.38578,0.19884 1.86306,0.27696 0.73963,0.12104 1.46054,0.3159 2.20445,0.41787 0.99705,0.13667 2.28654,0 3.27447,0 1.8949,0 3.91829,0.16782 5.78987,-0.13848 1.28576,-0.21043 2.53067,-0.87236 3.74417,-1.25613 1.298,-0.41049 2.70291,-0.93871 3.9153,-1.53451 0.66959,-0.32905 2.2227,-1.6631 2.53995,-2.35537 0.0472,-0.10301 0.22245,-0.82778 0.33846,-0.96933 0.1365,-0.16657 0.39291,-0.2539 0.51989,-0.42542 0.30446,-0.41128 -0.31041,-2.67809 -0.50768,-3.0413 -0.11455,-0.2109 -0.39658,-0.34177 -0.50768,-0.5539 -0.0999,-0.19066 -0.22293,-1.33418 -0.33846,-1.52324 -0.10703,-0.17517 -0.37493,-0.25249 -0.50768,-0.41543 -0.38729,-0.47538 -0.70485,-1.15354 -1.01536,-1.66173 -0.47198,-0.77243 -1.90942,-1.37029 -2.77413,-1.60616 -0.37977,-0.10359 -0.60302,-0.43109 -0.91177,-0.63959 z"
       id="path28376" />
    <path
       style="fill:none;stroke:#000000;stroke-width:0.318061;stroke-linecap:butt;stroke-linejoin:miter;stroke-miterlimit:4;stroke-dasharray:0.318061, 0.954183;stroke-dashoffset:0;stroke-opacity:1"
       d="m 94.822262,133.73116 c 0.602513,-1.77091 1.663289,-3.71409 1.309209,-5.70602 -0.449285,-2.52748 -1.417005,-3.62487 -2.981381,-5.68305 -0.957783,-1.26013 -1.735828,-2.72027 -2.983782,-3.69386 -3.153489,-2.46024 -7.617213,-3.60161 -11.410079,-4.36429 -5.121198,-1.02979 -9.576933,-2.51135 -14.537169,-0.50038 -1.378495,0.55887 -2.442319,1.69952 -3.635799,2.58732 -0.630928,0.46932 -1.354458,0.86001 -1.835129,1.48235 -4.522663,5.85565 -3.833149,15.26814 -0.112314,21.31405 0.890303,1.44664 2.134755,2.64279 3.202133,3.96419 1.249337,1.54666 2.153919,3.45176 3.748011,4.63998 1.504255,1.12127 3.434187,1.54451 5.238546,2.0586 7.424003,2.11515 19.586326,-1.75493 23.823964,-8.47921 0.361399,-0.57347 0.477576,-1.2754 0.607428,-1.94069 0.321833,-1.64891 0.86193,-3.30891 0.744287,-4.98481 -0.365231,-5.20276 -3.79256,-9.9938 -6.812315,-13.97866 -2.680897,-3.53771 -5.152574,-6.75361 -9.696278,-7.84761 -4.217163,-1.01536 -7.934932,0.76671 -11.258426,3.1981 -2.262199,1.65496 -4.848219,3.05006 -6.541327,5.28385 -1.42736,1.88319 -2.035252,4.31789 -2.493367,6.63606 -0.763418,3.86313 -0.973284,7.82398 -1.141648,11.75821 -0.235204,5.49576 4.768289,9.04123 9.922386,8.69981 1.504329,-0.0997 2.9081,-0.79666 4.360982,-1.19924 0.664279,-0.18405 1.392448,-0.21786 1.990475,-0.56068 1.43687,-0.82368 7.022401,-5.539 7.939851,-6.76927 1.276245,-1.71143 2.317612,-3.59416 3.293867,-5.49277 0.583852,-1.13546 1.310792,-2.3016 1.369774,-3.57702 0.0796,-1.72143 -0.418865,-3.44517 -0.969512,-5.07809 -0.285591,-0.84691 -0.833525,-1.62423 -1.493759,-2.22664 -1.965629,-1.79342 -3.934855,-3.68839 -6.30806,-4.89171 -3.954512,-2.0051 -9.452138,-2.2084 -13.699302,-1.40332 -1.97391,0.37418 -4.127443,0.74503 -5.677443,2.02325 -3.088899,2.54727 -5.706545,5.71505 -7.825565,9.11206 -1.635912,2.62254 2.544101,8.29463 4.03383,10.26992 2.050171,2.71848 5.921644,8.11071 8.926834,9.63983 1.454756,0.74022 3.105005,1.02388 4.69682,1.38495 2.197872,0.49856 6.376434,1.07537 8.694896,0.72709 1.320392,-0.19835 2.560832,-0.7641 3.811966,-1.23042 5.064485,-1.88757 7.485237,-3.08876 11.546072,-6.36897 2.521152,-2.0365 3.324749,-2.2299 4.680002,-5.65403 0.520891,-1.31607 0.760801,-2.74552 0.865831,-4.15704 0.11218,-1.50788 0.247768,-3.09279 -0.21945,-4.53084 -1.33194,-4.09951 -5.2171,-8.42678 -7.846474,-11.55508 -2.686793,-3.19669 -3.675632,-4.14875 -7.203714,-5.44027"
       id="path35463" />
    <text
       xml:space="preserve"
       style="font-size:3.52778px;line-height:1.25;font-family:sans-serif;text-align:center;letter-spacing:0px;word-spacing:0px;text-anchor:middle;white-space:pre;inline-size:30.1696;stroke-width:0.187192"
       x="38.592251"
       y="125.20123"
       id="text2630-6-1-3-6"
       transform="translate(173.87698,13.053334)"><tspan
         x="38.592251"
         y="125.20123"
         id="tspan83790"><tspan
   style="font-family:Chemins;-inkscape-font-specification:Chemins"
   id="tspan83788">communauté</tspan><tspan
   y="125.20123"
   id="tspan83792"> </tspan></tspan><tspan
         x="38.592251"
         y="129.75221"
         id="tspan83796"><tspan
           style="font-family:Chemins;-inkscape-font-specification:Chemins"
           id="tspan83794">d'acteur·ices</tspan></tspan></text>
    <path
       style="fill:none;stroke:#000000;stroke-width:0.318061;stroke-linecap:butt;stroke-linejoin:miter;stroke-miterlimit:4;stroke-dasharray:0.318061, 0.954183;stroke-dashoffset:0;stroke-opacity:1"
       d="m 232.64866,148.58585 c 0.60251,-1.77091 1.66329,-3.71409 1.30921,-5.70602 -0.44929,-2.52748 -1.41701,-3.62487 -2.98138,-5.68305 -0.95779,-1.26013 -1.73583,-2.72027 -2.98378,-3.69386 -3.15349,-2.46024 -7.61722,-3.60161 -11.41008,-4.36429 -5.1212,-1.02979 -9.57694,-2.51135 -14.53717,-0.50038 -1.3785,0.55887 -2.44232,1.69952 -3.6358,2.58732 -0.63093,0.46932 -1.35446,0.86001 -1.83513,1.48235 -4.52266,5.85565 -3.83315,15.26814 -0.11232,21.31405 0.89031,1.44664 2.13476,2.64279 3.20214,3.96419 1.24933,1.54666 2.15392,3.45176 3.74801,4.63998 1.50425,1.12127 3.43419,1.54451 5.23854,2.0586 7.42401,2.11515 19.58633,-1.75493 23.82397,-8.47921 0.3614,-0.57347 0.47758,-1.2754 0.60743,-1.94069 0.32183,-1.64891 0.86193,-3.30891 0.74428,-4.98481 -0.36523,-5.20276 -3.79255,-9.9938 -6.81231,-13.97866 -2.6809,-3.53771 -5.15258,-6.75361 -9.69628,-7.84761 -4.21716,-1.01536 -7.93493,0.76671 -11.25843,3.1981 -2.26219,1.65496 -4.84821,3.05006 -6.54132,5.28385 -1.42736,1.88319 -2.03525,4.31789 -2.49337,6.63606 -0.76342,3.86313 -0.97328,7.82398 -1.14165,11.75821 -0.2352,5.49576 4.76829,9.04123 9.92239,8.69981 1.50433,-0.0997 2.9081,-0.79666 4.36098,-1.19924 0.66428,-0.18405 1.39245,-0.21786 1.99048,-0.56068 1.43687,-0.82368 7.0224,-5.539 7.93985,-6.76927 1.27624,-1.71143 2.31761,-3.59416 3.29386,-5.49277 0.58386,-1.13546 1.3108,-2.3016 1.36978,-3.57702 0.0796,-1.72143 -0.41887,-3.44517 -0.96951,-5.07809 -0.2856,-0.84691 -0.83353,-1.62423 -1.49376,-2.22664 -1.96563,-1.79342 -3.93486,-3.68839 -6.30806,-4.89171 -3.95452,-2.0051 -9.45214,-2.2084 -13.69931,-1.40332 -1.97391,0.37418 -4.12744,0.74503 -5.67744,2.02325 -3.0889,2.54727 -5.70654,5.71505 -7.82556,9.11206 -1.63592,2.62254 2.5441,8.29463 4.03383,10.26992 2.05017,2.71848 5.92164,8.11071 8.92683,9.63983 1.45476,0.74022 3.10501,1.02388 4.69682,1.38495 2.19787,0.49856 6.37643,1.07537 8.6949,0.72709 1.32039,-0.19835 2.56083,-0.7641 3.81196,-1.23042 5.06449,-1.88757 7.48524,-3.08876 11.54608,-6.36897 2.52115,-2.0365 3.32475,-2.2299 4.68,-5.65403 0.52089,-1.31607 0.7608,-2.74552 0.86583,-4.15704 0.11218,-1.50788 0.24777,-3.09279 -0.21945,-4.53084 -1.33194,-4.09951 -5.2171,-8.42678 -7.84647,-11.55508 -2.6868,-3.19669 -3.67564,-4.14875 -7.20372,-5.44027"
       id="path35463-7" />
    <g
       id="g47980"
       transform="translate(-0.52916667,-3.1750001)">
      <path
         style="fill:#ffffff;stroke:#000000;stroke-width:0.363;stroke-linecap:square;stroke-linejoin:round;stroke-miterlimit:4;stroke-dasharray:0.363, 1.452;stroke-dashoffset:0;stroke-opacity:1"
         id="path47776"
         d="m 55.387382,81.32215 c -1.162215,1.004772 -2.320098,2.08887 -3.149498,3.443413 -1.103292,1.801858 -1.775114,3.485508 -2.659956,5.446836 -0.481694,1.283105 -1.038585,2.536135 -1.445081,3.849315 -1.181274,3.816077 -1.818987,7.184936 -2.38484,11.180666 -0.556857,3.93221 -0.84158,7.71807 -1.029175,11.68422 -0.0748,1.58144 -0.08825,3.16555 -0.132369,4.74833 -0.01021,4.06486 -0.04512,8.13404 0.347946,12.1833 0.128786,1.3267 0.305156,2.6482 0.506544,3.96429 0.448137,2.92861 0.708417,3.83549 1.351567,6.62426 0.589488,2.14723 1.254321,4.27648 2.132788,6.30812 0.48252,1.11592 0.654471,1.38784 1.197294,2.3933 0,0 1.824178,-0.94241 1.824178,-0.94241 v 0 c -0.494288,-0.90571 -0.669868,-1.18466 -1.107434,-2.19301 -0.840436,-1.93673 -1.46498,-3.97204 -2.029914,-6.01883 -0.62351,-2.71866 -0.868648,-3.57443 -1.306216,-6.43052 -0.195532,-1.2763 -0.367943,-2.55762 -0.494291,-3.84406 -0.391191,-3.98299 -0.359361,-7.9847 -0.331987,-11.9835 0.04915,-1.55891 0.07024,-3.11913 0.147439,-4.67671 0.195503,-3.94483 0.466571,-7.55141 1.015201,-11.4669 0.533312,-3.80617 1.150388,-7.173501 2.264878,-10.817257 0.389774,-1.274343 0.928126,-2.489813 1.39219,-3.734718 0.770426,-1.724014 1.476306,-3.487253 2.452922,-5.093747 0.751998,-1.237002 1.834139,-2.193476 2.882213,-3.118533 0,0 -1.444399,-1.505855 -1.444399,-1.505855 z" />
      <path
         style="fill:#ffffff;stroke:#000000;stroke-width:0.357;stroke-linecap:square;stroke-linejoin:round;stroke-miterlimit:4;stroke-dasharray:0.357, 1.428;stroke-dashoffset:0;stroke-opacity:1"
         id="path47891"
         d="m 51.94678,153.26413 c -1.671658,-0.98318 -3.295504,-2.04431 -4.971087,-3.02126 -0.463684,-0.26475 -0.912619,-0.55307 -1.355714,-0.8505 0,0 -1.382424,1.45851 -1.382424,1.45851 v 0 c 0.471154,0.33288 0.950804,0.65249 1.449551,0.94327 1.689516,0.97643 3.31405,2.05965 5.004647,3.03392 0,0 1.255027,-1.56394 1.255027,-1.56394 z" />
      <path
         style="fill:#ffffff;stroke:#000000;stroke-width:0.357;stroke-linecap:square;stroke-linejoin:round;stroke-miterlimit:4;stroke-dasharray:0.357, 1.428;stroke-dashoffset:0;stroke-opacity:1"
         id="path47895"
         d="m 52.905379,154.28152 c 0.43338,-2.25906 0.931336,-4.50357 1.341612,-6.76715 0.269989,-1.27131 0.140758,-0.66977 0.386831,-1.80478 0,0 -1.984232,-0.36432 -1.984232,-0.36432 v 0 c -0.25808,1.16054 -0.122388,0.53967 -0.405063,1.86303 -0.42544,2.31375 -0.950191,4.60739 -1.341634,6.92717 0,0 2.002486,0.14605 2.002486,0.14605 z" />
    </g>
    <path
       style="fill:#ffffff;stroke:#000000;stroke-width:0.357;stroke-linecap:square;stroke-linejoin:round;stroke-miterlimit:4;stroke-dasharray:0.357, 2.142;stroke-dashoffset:0;stroke-opacity:1"
       id="path48096"
       d="m 41.371551,156.55264 c -0.0889,-1.51658 -0.06351,-3.039 -0.170439,-4.55462 -0.06325,-0.89646 -0.14455,-1.44086 -0.256318,-2.30714 0,0 -1.004977,0.10803 -1.004977,0.10803 v 0 c 0.102798,0.80752 0.189492,1.4103 0.247973,2.23784 0.106203,1.50284 0.08019,3.01259 0.180199,4.51589 0,0 1.003562,0 1.003562,0 z" />
    <path
       style="fill:#ffffff;stroke:#000000;stroke-width:0.357;stroke-linecap:square;stroke-linejoin:round;stroke-miterlimit:4;stroke-dasharray:0.357, 2.142;stroke-dashoffset:0;stroke-opacity:1"
       id="path48098"
       d="m 44.103035,154.10433 c 0.0029,-0.92557 0.0027,-1.85113 0.0026,-2.7767 0,0 -1.010301,0 -1.010301,0 v 0 c -5.8e-5,0.92557 -2.35e-4,1.85113 0.0026,2.7767 0,0 1.005062,0 1.005062,0 z" />
    <path
       style="fill:#ffffff;stroke:#000000;stroke-width:0.357;stroke-linecap:square;stroke-linejoin:round;stroke-miterlimit:4;stroke-dasharray:0.357, 2.142;stroke-dashoffset:0;stroke-opacity:1"
       id="path48100"
       d="m 47.867014,154.60058 c 0.0016,-0.40753 0.0013,-0.81506 0.0013,-1.22259 0,0 -1.004478,0 -1.004478,0 v 0 c -7.4e-5,0.40753 -2.59e-4,0.81506 0.0013,1.22259 0,0 1.001922,0 1.001922,0 z" />
    <path
       style="fill:#ffffff;stroke:#000000;stroke-width:0.357;stroke-linecap:square;stroke-linejoin:round;stroke-miterlimit:4;stroke-dasharray:0.357, 2.142;stroke-dashoffset:0;stroke-opacity:1"
       id="path48102"
       d="m 55.587344,156.10013 c -0.01947,-1.69426 0.03028,-3.38678 0.146632,-5.07695 0.02278,-0.28712 0.04555,-0.57424 0.06833,-0.86136 0,0 -1.006896,-0.0677 -1.006896,-0.0677 v 0 c -0.02344,0.29022 -0.0469,0.58045 -0.07035,0.87067 -0.11787,1.70952 -0.170408,3.42162 -0.139317,5.13531 0,0 1.001602,0 1.001602,0 z" />
    <path
       style="fill:#ffffff;stroke:#000000;stroke-width:0.357;stroke-linecap:square;stroke-linejoin:round;stroke-miterlimit:4;stroke-dasharray:0.357, 2.142;stroke-dashoffset:0;stroke-opacity:1"
       id="path48104"
       d="m 59.173382,156.15687 c 0.164981,-0.7882 0.390419,-1.56166 0.588901,-2.34168 0,0 -0.98453,-0.20977 -0.98453,-0.20977 v 0 c -0.203277,0.79386 -0.433107,1.58166 -0.592267,2.38613 0,0 0.987896,0.16532 0.987896,0.16532 z" />
    <path
       style="fill:#ffffff;stroke:#000000;stroke-width:0.357;stroke-linecap:square;stroke-linejoin:round;stroke-miterlimit:4;stroke-dasharray:0.357, 2.142;stroke-dashoffset:0;stroke-opacity:1"
       id="path48106"
       d="m 62.296603,159.63979 c 0.597188,-1.55786 1.092033,-3.15325 1.64796,-4.72686 0,0 -0.972188,-0.28555 -0.972188,-0.28555 v 0 c -0.559641,1.579 -1.059003,3.1785 -1.645068,4.74733 0,0 0.969296,0.26508 0.969296,0.26508 z" />
    <path
       style="fill:#ffffff;stroke:#000000;stroke-width:0.357;stroke-linecap:square;stroke-linejoin:round;stroke-miterlimit:4;stroke-dasharray:0.357, 2.142;stroke-dashoffset:0;stroke-opacity:1"
       id="path48108"
       d="m 65.578489,158.42417 c 0.144129,-0.81286 0.332814,-1.61559 0.524912,-2.41808 0,0 -0.991325,-0.19702 -0.991325,-0.19702 v 0 c -0.190828,0.80706 -0.379391,1.6141 -0.51967,2.43191 0,0 0.986083,0.18319 0.986083,0.18319 z" />
    <path
       style="fill:#ffffff;stroke:#000000;stroke-width:0.357;stroke-linecap:square;stroke-linejoin:round;stroke-miterlimit:4;stroke-dasharray:0.357, 2.142;stroke-dashoffset:0;stroke-opacity:1"
       id="path48112"
       d="m 63.056341,150.94651 c 0.04109,-0.59828 0.07584,-1.19692 0.108791,-1.7957 0,0 -1.006009,-0.0463 -1.006009,-0.0463 v 0 c -0.03353,0.6141 -0.07149,1.2279 -0.104704,1.84201 0,0 1.001922,0 1.001922,0 z" />
    <path
       style="fill:#ffffff;stroke:#000000;stroke-width:0.357;stroke-linecap:square;stroke-linejoin:round;stroke-miterlimit:4;stroke-dasharray:0.357, 2.142;stroke-dashoffset:0;stroke-opacity:1"
       id="path48114"
       d="m 71.508122,157.61463 c 0.816358,-1.23809 1.49561,-2.55512 2.179637,-3.86846 0,0 -0.93059,-0.39804 -0.93059,-0.39804 v 0 c -0.672541,1.28503 -1.339564,2.57413 -2.132671,3.79072 0,0 0.883624,0.47578 0.883624,0.47578 z" />
    <path
       style="fill:#ffffff;stroke:#000000;stroke-width:0.357;stroke-linecap:square;stroke-linejoin:round;stroke-miterlimit:4;stroke-dasharray:0.357, 2.142;stroke-dashoffset:0;stroke-opacity:1"
       id="path48116"
       d="m 75.750512,156.38869 c 0.396099,-0.98993 0.697335,-2.01717 0.959019,-3.05 0,0 -0.984509,-0.20945 -0.984509,-0.20945 v 0 c -0.244417,0.95315 -0.52419,1.90002 -0.874832,2.81987 0,0 0.900322,0.43958 0.900322,0.43958 z" />
    <path
       style="fill:#ffffff;stroke:#000000;stroke-width:0.357;stroke-linecap:square;stroke-linejoin:round;stroke-miterlimit:4;stroke-dasharray:0.357, 2.142;stroke-dashoffset:0;stroke-opacity:1"
       id="path48118"
       d="m 72.281287,165.11765 c 0.373073,-1.11474 0.547738,-2.27852 0.791274,-3.42436 0,0 -0.992,-0.17581 -0.992,-0.17581 v 0 c -0.234524,1.11 -0.408414,2.23573 -0.7606,3.31771 0,0 0.961326,0.28246 0.961326,0.28246 z" />
    <path
       style="fill:#ffffff;stroke:#000000;stroke-width:0.357;stroke-linecap:square;stroke-linejoin:round;stroke-miterlimit:4;stroke-dasharray:0.357, 2.142;stroke-dashoffset:0;stroke-opacity:1"
       id="path48120"
       d="m 71.037047,160.47539 c -0.01963,-0.8741 0.01101,-1.74353 0.09928,-2.61299 0,0 -1.003638,-0.0847 -1.003638,-0.0847 v 0 c -0.08944,0.89769 -0.125529,1.79528 -0.09807,2.69767 0,0 1.00243,0 1.00243,0 z" />
    <path
       style="fill:#ffffff;stroke:#000000;stroke-width:0.357;stroke-linecap:square;stroke-linejoin:round;stroke-miterlimit:4;stroke-dasharray:0.357, 2.142;stroke-dashoffset:0;stroke-opacity:1"
       id="path48122"
       d="m 74.496186,161.85643 c 0.129034,-0.86957 0.354412,-1.72 0.616669,-2.55765 0,0 -0.973661,-0.25221 -0.973661,-0.25221 v 0 c -0.273812,0.88464 -0.511405,1.78228 -0.639572,2.70108 0,0 0.996564,0.10878 0.996564,0.10878 z" />
    <path
       style="fill:#ffffff;stroke:#000000;stroke-width:0.357;stroke-linecap:square;stroke-linejoin:round;stroke-miterlimit:4;stroke-dasharray:0.357, 2.142;stroke-dashoffset:0;stroke-opacity:1"
       id="path48124"
       d="m 76.10485,162.31063 c 0.64785,-1.26647 1.000045,-2.66192 1.344271,-4.03476 0,0 -0.989034,-0.20774 -0.989034,-0.20774 v 0 c -0.32612,1.29183 -0.652661,2.60784 -1.255654,3.80314 0,0 0.900417,0.43936 0.900417,0.43936 z" />
    <path
       style="fill:#ffffff;stroke:#000000;stroke-width:0.357;stroke-linecap:square;stroke-linejoin:round;stroke-miterlimit:4;stroke-dasharray:0.357, 2.142;stroke-dashoffset:0;stroke-opacity:1"
       id="path48126"
       d="m 49.499535,157.91886 c 0.01902,-1.43214 0.0057,-2.86232 -0.06813,-4.29268 0,0 -1.007374,0.0428 -1.007374,0.0428 v 0 c 0.07024,1.41616 0.08233,2.83205 0.07198,4.24986 0,0 1.003525,0 1.003525,0 z" />
    <path
       style="fill:#ffffff;stroke:#000000;stroke-width:0.357;stroke-linecap:square;stroke-linejoin:round;stroke-miterlimit:4;stroke-dasharray:0.357, 2.142;stroke-dashoffset:0;stroke-opacity:1"
       id="path48128"
       d="m 47.459862,157.0366 c 0.0019,-0.60578 0.0013,-1.21158 7.94e-4,-1.81736 0,0 -1.003422,0 -1.003422,0 v 0 c -5.29e-4,0.60578 -0.0011,1.21158 7.94e-4,1.81736 0,0 1.001596,0 1.001596,0 z" />
    <path
       style="fill:#ffffff;stroke:#000000;stroke-width:0.357;stroke-linecap:square;stroke-linejoin:round;stroke-miterlimit:4;stroke-dasharray:0.357, 2.142;stroke-dashoffset:0;stroke-opacity:1"
       id="path48130"
       d="m 86.402179,153.96362 c 0.70499,-1.13692 1.413769,-2.27093 2.133417,-3.39864 0,0 -0.902914,-0.46607 -0.902914,-0.46607 v 0 c -0.726731,1.14247 -1.446199,2.28908 -2.146044,3.44829 0,0 0.915541,0.41642 0.915541,0.41642 z" />
    <path
       style="fill:#ffffff;stroke:#000000;stroke-width:0.357;stroke-linecap:square;stroke-linejoin:round;stroke-miterlimit:4;stroke-dasharray:0.357, 2.142;stroke-dashoffset:0;stroke-opacity:1"
       id="path48132"
       d="m 90.516159,153.19784 c 0.08908,-0.13311 0.183996,-0.26251 0.26726,-0.39935 0.13456,-0.22113 0.257223,-0.44929 0.385834,-0.67393 0.160735,-0.2668 0.319188,-0.53498 0.482206,-0.80039 0.361278,-0.58821 0.73133,-1.17097 1.096963,-1.75648 0,0 -0.901375,-0.45693 -0.901375,-0.45693 v 0 c -0.221705,0.35451 -0.89707,1.43245 -1.103299,1.77063 -0.165082,0.2707 -0.325144,0.54443 -0.487715,0.81664 -0.120017,0.20941 -0.235304,0.42161 -0.36005,0.62824 -0.08889,0.14723 -0.187092,0.28865 -0.280638,0.43298 0,0 0.900814,0.43859 0.900814,0.43859 z" />
    <path
       style="fill:#ffffff;stroke:#000000;stroke-width:0.357;stroke-linecap:square;stroke-linejoin:round;stroke-miterlimit:4;stroke-dasharray:0.357, 2.142;stroke-dashoffset:0;stroke-opacity:1"
       id="path48134"
       d="m 102.00876,143.66949 c 0.004,-1.19928 0.002,-0.56302 0.004,-1.90878 0,0 -1.01123,0 -1.01123,0 v 0 c 0.002,1.34576 0,0.7095 0.004,1.90878 0,0 1.00339,0 1.00339,0 z" />
    <path
       style="fill:#ffffff;stroke:#000000;stroke-width:0.357;stroke-linecap:square;stroke-linejoin:round;stroke-miterlimit:4;stroke-dasharray:0.357, 2.142;stroke-dashoffset:0;stroke-opacity:1"
       id="path48136"
       d="m 104.4828,145.99427 c 0.50684,-1.56241 0.77225,-3.18098 1.04872,-4.79484 0.0558,-0.32549 0.35579,-2.00448 0.43039,-2.42266 0,0 -1.00035,-0.15052 -1.00035,-0.15052 v 0 c -0.43293,2.39216 -0.75216,4.8135 -1.45797,7.14615 0,0 0.97921,0.22187 0.97921,0.22187 z" />
    <path
       style="fill:#ffffff;stroke:#000000;stroke-width:0.357;stroke-linecap:square;stroke-linejoin:round;stroke-miterlimit:4;stroke-dasharray:0.357, 2.142;stroke-dashoffset:0;stroke-opacity:1"
       id="path48138"
       d="m 100.06309,149.41847 c 0.0239,-0.25469 0.0321,-0.51135 0.0717,-0.76409 0.0661,-0.42178 0.16588,-0.83759 0.24486,-1.25715 0.3055,-1.62296 0.2928,-1.69785 0.64794,-3.38326 0.11545,-0.54791 0.6486,-2.90841 0.79031,-3.53791 0.091,-0.4099 0.18206,-0.8198 0.27308,-1.2297 0,0 -0.99598,-0.18647 -0.99598,-0.18647 v 0 c -0.0924,0.4091 -0.18481,0.8182 -0.27722,1.2273 -0.20079,0.88548 -0.61994,2.71957 -0.7959,3.56005 -0.30395,1.45179 -0.384222,1.97544 -0.643596,3.39068 -0.08205,0.44769 -0.183592,0.89211 -0.249259,1.3425 -0.04044,0.27735 -0.04578,0.5587 -0.06867,0.83805 0,0 1.002755,0 1.002755,0 z" />
    <path
       style="fill:#ffffff;stroke:#000000;stroke-width:0.357;stroke-linecap:square;stroke-linejoin:round;stroke-miterlimit:4;stroke-dasharray:0.357, 2.142;stroke-dashoffset:0;stroke-opacity:1"
       id="path48140"
       d="m 108.10924,148.12232 c 0.3926,-1.30915 0.78906,-2.61686 1.16862,-3.92987 0,0 -0.98539,-0.23766 -0.98539,-0.23766 v 0 c -0.37155,1.28205 -0.75809,2.55951 -1.13032,3.84135 0,0 0.94709,0.32618 0.94709,0.32618 z" />
    <path
       style="fill:#ffffff;stroke:#000000;stroke-width:0.357;stroke-linecap:square;stroke-linejoin:round;stroke-miterlimit:4;stroke-dasharray:0.357, 2.142;stroke-dashoffset:0;stroke-opacity:1"
       id="path48142"
       d="m 107.46663,146.57534 c -0.0116,-0.92577 -0.0872,-1.85049 -0.13305,-2.77541 0,0 -1.00523,0.0413 -1.00523,0.0413 v 0 c 0.0439,0.91142 0.11775,1.8222 0.13665,2.73414 0,0 1.00163,0 1.00163,0 z" />
    <path
       style="fill:#ffffff;stroke:#000000;stroke-width:0.357;stroke-linecap:square;stroke-linejoin:round;stroke-miterlimit:4;stroke-dasharray:0.357, 2.142;stroke-dashoffset:0;stroke-opacity:1"
       id="path48144"
       d="m 102.3374,149.86032 c 0.29048,-0.79191 0.71948,-1.52336 1.12761,-2.25838 0,0 -0.91802,-0.41555 -0.91802,-0.41555 v 0 c -0.45222,0.81764 -0.936,1.63342 -1.20191,2.53538 0,0 0.99232,0.13855 0.99232,0.13855 z" />
    <path
       style="fill:#ffffff;stroke:#000000;stroke-width:0.357;stroke-linecap:square;stroke-linejoin:round;stroke-miterlimit:4;stroke-dasharray:0.357, 2.142;stroke-dashoffset:0;stroke-opacity:1"
       id="path48146"
       d="m 98.744869,146.45674 c 0.140174,-0.76686 0.06758,-0.36204 0.216837,-1.21461 0,0 -0.996614,-0.14549 -0.996614,-0.14549 v 0 c -0.150707,0.86838 -0.07782,0.44604 -0.218794,1.26702 0,0 0.998571,0.0931 0.998571,0.0931 z" />
    <path
       style="fill:#ffffff;stroke:#000000;stroke-width:0.357;stroke-linecap:square;stroke-linejoin:round;stroke-miterlimit:4;stroke-dasharray:0.357, 2.142;stroke-dashoffset:0;stroke-opacity:1"
       id="path48148"
       d="m 95.412427,151.76143 c 0.02535,-1.16899 -0.0159,-2.3371 -0.136406,-3.49989 0,0 -1.003025,0.0876 -1.003025,0.0876 v 0 c 0.118419,1.13372 0.15223,2.27263 0.137826,3.41233 0,0 1.001605,0 1.001605,0 z" />
    <path
       style="fill:#ffffff;stroke:#000000;stroke-width:0.357;stroke-linecap:square;stroke-linejoin:round;stroke-miterlimit:4;stroke-dasharray:0.357, 2.142;stroke-dashoffset:0;stroke-opacity:1"
       id="path48150"
       d="m 69.839207,146.21742 c 0.04419,-0.94185 -0.132263,-1.86999 -0.338368,-2.78338 0,0 -0.989322,0.18843 -0.989322,0.18843 v 0 c 0.196048,0.85115 0.362183,1.71641 0.325451,2.59495 0,0 1.002239,0 1.002239,0 z" />
    <path
       style="fill:#ffffff;stroke:#000000;stroke-width:0.357;stroke-linecap:square;stroke-linejoin:round;stroke-miterlimit:4;stroke-dasharray:0.357, 2.142;stroke-dashoffset:0;stroke-opacity:1"
       id="path48152"
       d="m 72.625661,145.76068 c 0.213235,-0.85956 0.352933,-1.73539 0.498573,-2.60842 0,0 -0.995228,-0.13977 -0.995228,-0.13977 v 0 c -0.143261,0.85019 -0.280866,1.70276 -0.484346,2.54102 0,0 0.981001,0.20717 0.981001,0.20717 z" />
    <path
       style="fill:#ffffff;stroke:#000000;stroke-width:0.357;stroke-linecap:square;stroke-linejoin:round;stroke-miterlimit:4;stroke-dasharray:0.357, 2.142;stroke-dashoffset:0;stroke-opacity:1"
       id="path48154"
       d="m 35.012378,154.04028 c -0.05767,-1.43924 -0.362585,-2.84695 -0.699833,-4.24216 0,0 -0.989878,0.20014 -0.989878,0.20014 v 0 c 0.330711,1.3642 0.63014,2.73957 0.692592,4.14656 0,0 0.997119,-0.10454 0.997119,-0.10454 z" />
    <path
       style="fill:#ffffff;stroke:#000000;stroke-width:0.357;stroke-linecap:square;stroke-linejoin:round;stroke-miterlimit:4;stroke-dasharray:0.357, 2.142;stroke-dashoffset:0;stroke-opacity:1"
       id="path48156"
       d="m 36.508031,158.24532 c 0.381304,-2.53845 0.326768,-5.11909 0.101076,-7.66919 -0.06387,-0.72173 -0.160425,-1.44019 -0.240639,-2.16028 -0.08898,-0.58273 -0.177964,-1.16546 -0.266946,-1.74819 0,0 -1.010324,0.1286 -1.010324,0.1286 v 0 c 0.08632,0.57156 0.172638,1.14311 0.258958,1.71467 0.0787,0.7079 0.172823,1.41425 0.236106,2.1237 0.225904,2.53254 0.2741,5.08732 -0.08033,7.61069 0,0 1.002104,0 1.002104,0 z" />
    <path
       style="fill:#ffffff;stroke:#000000;stroke-width:0.357;stroke-linecap:square;stroke-linejoin:round;stroke-miterlimit:4;stroke-dasharray:0.357, 2.142;stroke-dashoffset:0;stroke-opacity:1"
       id="path48158"
       d="m 82.152391,159.18806 c 0.184931,-0.85845 0.310446,-1.72763 0.437486,-2.59595 0,0 -1.002086,-0.12316 -1.002086,-0.12316 v 0 c -0.125954,0.8571 -0.251518,1.71466 -0.426862,2.56346 0,0 0.991462,0.15565 0.991462,0.15565 z" />
    <path
       style="fill:none;stroke:#000000;stroke-width:0.065;stroke-linecap:butt;stroke-linejoin:miter;stroke-miterlimit:4;stroke-dasharray:none;stroke-opacity:1"
       d="m 243.87861,78.938433 -33.37173,-0.521213 -0.57684,43.98542 35.81052,1.11254"
       id="path67146"
       sodipodi:nodetypes="cccc" />
    <path
       style="fill:#ffffff;stroke:#000000;stroke-width:0.165;stroke-linecap:square;stroke-linejoin:round;stroke-miterlimit:4;stroke-dasharray:none;stroke-dashoffset:7.55905;stroke-opacity:1"
       id="path33596"
       d="m 229.09154,110.27079 c 0.32066,1.20799 0.19058,0.62214 0.46228,2.43858 0.30146,2.0153 0.66565,4.41084 0.75174,6.41892 0.1745,4.07013 -0.0489,6.99627 -0.22689,11.11207 -0.22135,2.01995 -0.33886,4.05401 -0.66404,6.05986 -0.67292,4.15099 -1.85783,8.64712 -3.08723,12.67191 -0.8728,2.85733 -2.05159,6.20901 -3.27481,8.98364 -0.41998,0.95262 -0.92609,1.86489 -1.38914,2.79735 -0.85553,1.50466 -1.89343,2.88268 -3.18892,4.03368 -0.33394,0.2967 -0.99938,0.77333 -1.38201,1.05359 0,0 1.48935,1.36006 1.48935,1.36006 v 0 c 0.55635,-0.4187 1.02383,-0.75223 1.54448,-1.23701 1.40336,-1.30664 2.5441,-2.84108 3.48283,-4.5116 0.48424,-0.97366 1.01198,-1.92688 1.45272,-2.92098 1.25735,-2.83598 2.46809,-6.23766 3.36318,-9.16385 1.3011,-4.25349 2.41995,-8.56534 3.11698,-12.96451 0.32417,-2.04593 0.4418,-4.11927 0.6627,-6.17891 0.0795,-2.00647 0.20994,-4.01158 0.23856,-6.01942 0.0254,-1.77878 0.0126,-3.55961 -0.0767,-5.33633 -0.0621,-1.23562 -0.22486,-2.46456 -0.37681,-3.69239 -0.0997,-0.80531 -0.55055,-3.67768 -0.76625,-4.72723 -0.0492,-0.23932 -0.13263,-0.47033 -0.19894,-0.70548 0,0 -1.93351,0.52817 -1.93351,0.52817 z" />
    <path
       style="fill:#ffffff;stroke:#000000;stroke-width:0.157;stroke-linecap:square;stroke-linejoin:round;stroke-miterlimit:4;stroke-dasharray:0.157, 0.314;stroke-dashoffset:0;stroke-opacity:1"
       id="path33750"
       d="m 232.53398,89.03536 c 0.17727,-0.68785 0.30203,-1.38806 0.47455,-2.07695 0.20827,-0.83156 0.43975,-1.65713 0.66144,-2.48522 1.09404,-4.086586 1.36287,-5.262584 2.78105,-9.54146 0.64663,-1.951001 1.36467,-3.877609 2.047,-5.816415 1.72583,-4.451043 3.52693,-8.892305 5.8481,-13.07341 0.40478,-0.729129 0.86895,-1.423666 1.30343,-2.135498 0,0 -1.83867,-0.915735 -1.83867,-0.915735 v 0 c -0.45877,0.74479 -0.94846,1.471403 -1.37633,2.23437 -2.38134,4.246374 -4.23294,8.760648 -5.98256,13.295008 -0.68487,1.962801 -1.40874,3.912423 -2.0546,5.888402 -1.39313,4.262208 -1.68453,5.553411 -2.73548,9.628098 -0.21975,0.852 -0.44798,1.70195 -0.65257,2.55772 -0.16146,0.67536 -0.27331,1.36188 -0.43844,2.03651 0,0 1.96308,0.40458 1.96308,0.40458 z" />
    <g
       id="g71248"
       transform="rotate(-10.844379,207.47128,173.73321)">
      <path
         style="fill:#ffffff;stroke:#000000;stroke-width:0.157;stroke-linecap:square;stroke-linejoin:round;stroke-miterlimit:4;stroke-dasharray:0.157, 0.314;stroke-dashoffset:0;stroke-opacity:1"
         id="path66763"
         d="m 190.0249,157.72261 c 0.88234,1.22551 1.72806,2.4774 2.58018,3.7242 0.28869,0.37988 0.37321,0.82325 0.52222,1.2582 0.098,0.26951 0.24417,0.51618 0.37883,0.76814 0,0 1.84336,-0.78515 1.84336,-0.78515 v 0 c -0.10562,-0.20722 -0.23434,-0.39687 -0.3216,-0.61253 -0.0747,-0.0777 -0.11176,-0.41041 -0.12467,-0.45428 -0.11925,-0.40527 -0.34299,-0.77094 -0.53766,-1.14164 -0.87099,-1.28229 -1.73675,-2.56897 -2.64515,-3.82507 0,0 -1.69551,1.06813 -1.69551,1.06813 z" />
      <path
         style="fill:#ffffff;stroke:#000000;stroke-width:0.157;stroke-linecap:square;stroke-linejoin:round;stroke-miterlimit:4;stroke-dasharray:0.157, 0.314;stroke-dashoffset:0;stroke-opacity:1"
         id="path66771"
         d="m 195.12809,163.77057 c 1.33938,-1.30741 2.82425,-2.49615 4.02463,-3.94095 0.19808,-0.23841 0.37,-0.49738 0.555,-0.74607 0.1294,-0.19934 0.25879,-0.39868 0.38819,-0.59802 0,0 -1.77382,-0.94499 -1.77382,-0.94499 v 0 c -0.11247,0.16763 -0.22493,0.33526 -0.3374,0.50289 -1.37733,1.79295 -3.19042,3.13152 -4.65608,4.84301 0,0 1.79948,0.88413 1.79948,0.88413 z" />
      <path
         style="fill:#ffffff;stroke:#000000;stroke-width:0.157;stroke-linecap:square;stroke-linejoin:round;stroke-miterlimit:4;stroke-dasharray:0.157, 0.471;stroke-dashoffset:0;stroke-opacity:1"
         id="path55218"
         d="m 232.00157,96.441851 c -1.06528,0.606399 -1.49874,0.825717 -2.65843,1.701057 -3.75883,2.837192 -7.24152,6.148132 -10.49817,9.534882 -1.42157,1.47836 -2.77207,3.02345 -4.15811,4.53517 -1.38113,1.65138 -2.82923,3.24899 -4.14339,4.95416 -4.10472,5.32597 -7.82918,11.32453 -10.60449,17.45411 -2.32019,5.12439 -2.62564,6.84539 -4.18307,12.16811 -1.31549,5.51255 -2.32955,11.05091 -2.14061,16.7332 0,0 2.01868,-0.0493 2.01868,-0.0493 v 0 c -0.13422,-5.47322 0.87823,-10.88474 2.15487,-16.18756 1.52655,-5.19982 1.81598,-6.84649 4.0887,-11.85137 2.74153,-6.03728 6.36419,-11.86457 10.41289,-17.1095 1.29905,-1.68288 2.72923,-3.26032 4.09385,-4.89048 1.36913,-1.49029 2.70534,-3.01152 4.1074,-4.47089 3.19003,-3.32045 6.55649,-6.54772 10.23498,-9.332458 1.00811,-0.763169 1.60012,-1.089069 2.57928,-1.666369 0,0 -1.30438,-1.522802 -1.30438,-1.522802 z" />
    </g>
    <path
       style="fill:#ffffff;stroke:#000000;stroke-width:0.157;stroke-linecap:square;stroke-linejoin:round;stroke-miterlimit:4;stroke-dasharray:0.157, 0.314;stroke-dashoffset:0;stroke-opacity:1"
       id="path66751"
       d="m 245.12508,52.484371 c -3.03446,0.843362 -6.08734,1.613527 -9.11181,2.492857 -1.68604,0.454594 -0.89479,0.237627 -2.37438,0.648597 0,0 0.92458,1.791443 0.92458,1.791443 v 0 c 1.48579,-0.403312 0.68644,-0.186531 2.39811,-0.650158 3.01352,-0.862245 6.05146,-1.632672 9.06579,-2.492012 0,0 -0.90229,-1.790727 -0.90229,-1.790727 z" />
    <path
       style="fill:#ffffff;stroke:#000000;stroke-width:0.157;stroke-linecap:square;stroke-linejoin:round;stroke-miterlimit:4;stroke-dasharray:0.157, 0.314;stroke-dashoffset:0;stroke-opacity:1"
       id="path66753"
       d="m 243.87769,52.374113 c 0.0873,2.478628 0.29175,4.950802 0.5583,7.415967 0.10728,1.024961 0.0606,0.552445 0.14244,1.417309 0,0 2.00306,-0.153749 2.00306,-0.153749 v 0 c -0.0783,-0.886018 -0.0334,-0.404831 -0.13753,-1.44331 -0.25325,-2.406528 -0.45148,-4.818404 -0.55923,-7.236217 0,0 -2.00704,0 -2.00704,0 z" />
  </g>
</svg>
