<?xml version="1.0" encoding="UTF-8" standalone="no"?>
<!-- Created with Inkscape (http://www.inkscape.org/) -->

<svg
   width="594mm"
   height="420mm"
   viewBox="0 0 594 419.99999"
   version="1.1"
   id="svg5"
   inkscape:version="1.1.2 (b8e25be8, 2022-02-05)"
   sodipodi:docname="usage-maxisource.svg"
   inkscape:export-filename="/Users/felicie/Library/Mobile Documents/com~apple~CloudDocs/Documents/m2r/luuse/usage-maxisource.png"
   inkscape:export-xdpi="300"
   inkscape:export-ydpi="300"
   xmlns:inkscape="http://www.inkscape.org/namespaces/inkscape"
   xmlns:sodipodi="http://sodipodi.sourceforge.net/DTD/sodipodi-0.dtd"
   xmlns:xlink="http://www.w3.org/1999/xlink"
   xmlns="http://www.w3.org/2000/svg"
   xmlns:svg="http://www.w3.org/2000/svg">
  <sodipodi:namedview
     id="namedview7"
     pagecolor="#ffffff"
     bordercolor="#666666"
     borderopacity="1.0"
     inkscape:pageshadow="2"
     inkscape:pageopacity="0.0"
     inkscape:pagecheckerboard="0"
     inkscape:document-units="mm"
     showgrid="false"
     inkscape:zoom="0.28695816"
     inkscape:cx="1359.0832"
     inkscape:cy="829.38921"
     inkscape:window-width="1319"
     inkscape:window-height="847"
     inkscape:window-x="0"
     inkscape:window-y="23"
     inkscape:window-maximized="0"
     inkscape:current-layer="layer1"
     inkscape:object-nodes="false"
     inkscape:snap-smooth-nodes="false"
     fit-margin-top="0"
     fit-margin-left="0"
     fit-margin-right="0"
     fit-margin-bottom="0"
     inkscape:snap-midpoints="true" />
  <defs
     id="defs2">
    <rect
       x="86.813679"
       y="63.663365"
       width="1015.72"
       height="182.30873"
       id="rect30892" />
    <rect
       x="130.20386"
       y="67.932449"
       width="956.71532"
       height="164.17008"
       id="rect26643" />
    <marker
       style="overflow:visible"
       id="marker1578"
       refX="0.0"
       refY="0.0"
       orient="auto"
       inkscape:stockid="TriangleOutL"
       inkscape:isstock="true">
      <path
         transform="scale(0.8)"
         style="fill-rule:evenodd;fill:context-stroke;stroke:context-stroke;stroke-width:1.0pt"
         d="M 5.77,0.0 L -2.88,5.0 L -2.88,-5.0 L 5.77,0.0 z "
         id="path1576" />
    </marker>
    <marker
       style="overflow:visible"
       id="TriangleOutL"
       refX="0.0"
       refY="0.0"
       orient="auto"
       inkscape:stockid="TriangleOutL"
       inkscape:isstock="true">
      <path
         transform="scale(0.8)"
         style="fill-rule:evenodd;fill:context-stroke;stroke:context-stroke;stroke-width:1.0pt"
         d="M 5.77,0.0 L -2.88,5.0 L -2.88,-5.0 L 5.77,0.0 z "
         id="path1426" />
    </marker>
    <marker
       id="ExperimentalArrow"
       refX="5.0"
       refY="3.0"
       orient="auto-start-reverse"
       inkscape:stockid="ExperimentalArrow"
       inkscape:isstock="true">
      <path
         style="fill:context-stroke"
         d="m 10,3 -10,3 0,-6 z"
         id="path1537" />
    </marker>
    <marker
       style="overflow:visible"
       id="EmptyTriangleOutL"
       refX="0.0"
       refY="0.0"
       orient="auto"
       inkscape:stockid="EmptyTriangleOutL"
       inkscape:isstock="true">
      <path
         transform="scale(0.8) translate(-6,0)"
         style="fill-rule:evenodd;fill:context-fill;stroke:context-stroke;stroke-width:1.0pt"
         d="M 5.77,0.0 L -2.88,5.0 L -2.88,-5.0 L 5.77,0.0 z "
         id="path1444" />
    </marker>
    <marker
       style="overflow:visible"
       id="DotL"
       refX="0.0"
       refY="0.0"
       orient="auto"
       inkscape:stockid="DotL"
       inkscape:isstock="true">
      <path
         transform="scale(0.8) translate(7.4, 1)"
         style="fill-rule:evenodd;fill:context-stroke;stroke:context-stroke;stroke-width:1.0pt"
         d="M -2.5,-1.0 C -2.5,1.7600000 -4.7400000,4.0 -7.5,4.0 C -10.260000,4.0 -12.5,1.7600000 -12.5,-1.0 C -12.5,-3.7600000 -10.260000,-6.0 -7.5,-6.0 C -4.7400000,-6.0 -2.5,-3.7600000 -2.5,-1.0 z "
         id="path1345" />
    </marker>
    <marker
       style="overflow:visible"
       id="Legs"
       refX="0"
       refY="0"
       orient="auto"
       inkscape:stockid="Legs"
       inkscape:isstock="true">
      <g
         transform="scale(-0.7)"
         id="g25004">
        <g
           transform="matrix(0,-1,-1,0,20.70862,21.31391)"
           id="g24998">
          <path
             style="fill:none;fill-opacity:0.75;fill-rule:evenodd;stroke:context-stroke;stroke-width:1pt"
             d="m 21.22125,20.67536 c -6.910151,4.721157 -2.454525,6.606844 -5.841071,13.443235"
             id="path24994" />
          <path
             style="fill:none;fill-opacity:0.75;fill-rule:evenodd;stroke:context-stroke;stroke-width:1pt"
             d="m 21.39811,20.54812 c -1.360509,8.347524 3.536072,8.76994 4.505041,13.824958"
             id="path24996" />
        </g>
        <path
           style="fill:context-stroke;fill-rule:evenodd;stroke-width:1pt"
           d="m -14.09007,-6.7318716 -0.922168,4.043383 3.962751,-1.22307 z"
           id="path25000" />
        <path
           style="fill:context-stroke;fill-rule:evenodd;stroke-width:1pt"
           d="m -15.215679,4.5567534 1.874127,3.699613 2.266874,-3.472855 z"
           id="path25002" />
      </g>
    </marker>
    <marker
       style="overflow:visible"
       id="marker50139"
       refX="0"
       refY="0"
       orient="auto"
       inkscape:stockid="Torso"
       inkscape:isstock="true">
      <g
         transform="scale(0.7)"
         id="g50137">
        <path
           style="fill:none;fill-opacity:0.75;fill-rule:evenodd;stroke:context-stroke;stroke-width:1.25"
           d="m -4.7792281,-3.239542 c 2.350374,0.3659393 5.30026732,1.9375477 5.03715532,3.62748546 C -0.00518779,2.0778819 -2.2126741,2.6176539 -4.5630471,2.2517169 -6.9134221,1.8857769 -8.521035,0.75201414 -8.257922,-0.93792336 -7.994809,-2.6278615 -7.1296041,-3.6054813 -4.7792281,-3.239542 Z"
           id="path50123" />
        <path
           style="fill:none;fill-opacity:0.75;fill-rule:evenodd;stroke:context-stroke;stroke-width:1pt"
           d="M 4.4598789,0.08866574 C -2.5564571,-4.378332 5.2248769,-3.9061806 -0.84829578,-8.7197331"
           id="path50125" />
        <path
           style="fill:none;fill-opacity:0.75;fill-rule:evenodd;stroke:context-stroke;stroke-width:1pt"
           d="M 4.9298719,0.05752074 C -1.3872731,1.7494689 1.8027579,5.4782079 -4.9448731,7.5462725"
           id="path50127" />
        <rect
           style="fill:context-stroke;fill-rule:evenodd;stroke-width:1pt"
           width="2.6366582"
           height="2.7608147"
           x="-10.391706"
           y="-1.7408575"
           transform="matrix(0.527536,-0.849533,0.887668,0.460484,0,0)"
           id="rect50129" />
        <rect
           style="fill:context-stroke;fill-rule:evenodd;stroke-width:1pt"
           width="2.7327356"
           height="2.8614161"
           x="4.9587269"
           y="-7.9629307"
           transform="matrix(0.671205,-0.741272,0.790802,0.612072,0,0)"
           id="rect50131" />
        <path
           style="fill:#ff0000;fill-opacity:0.75;fill-rule:evenodd;stroke:context-stroke;stroke-width:1pt"
           d="m 16.779951,-28.685045 a 0.60731727,0.60731727 0 1 0 -1.214634,0 0.60731727,0.60731727 0 1 0 1.214634,0 z"
           transform="matrix(0,-1.109517,1.109517,0,25.96648,19.71619)"
           id="path50133" />
        <path
           style="fill:#ff0000;fill-opacity:0.75;fill-rule:evenodd;stroke:context-stroke;stroke-width:1pt"
           d="m 16.779951,-28.685045 a 0.60731727,0.60731727 0 1 0 -1.214634,0 0.60731727,0.60731727 0 1 0 1.214634,0 z"
           transform="matrix(0,-1.109517,1.109517,0,26.8245,16.99126)"
           id="path50135" />
      </g>
    </marker>
    <marker
       style="overflow:visible"
       id="Torso"
       refX="0"
       refY="0"
       orient="auto"
       inkscape:stockid="Torso"
       inkscape:isstock="true">
      <g
         transform="scale(0.7)"
         id="g25021">
        <path
           style="fill:none;fill-opacity:0.75;fill-rule:evenodd;stroke:context-stroke;stroke-width:1.25"
           d="m -4.7792281,-3.239542 c 2.350374,0.3659393 5.30026732,1.9375477 5.03715532,3.62748546 C -0.00518779,2.0778819 -2.2126741,2.6176539 -4.5630471,2.2517169 -6.9134221,1.8857769 -8.521035,0.75201414 -8.257922,-0.93792336 -7.994809,-2.6278615 -7.1296041,-3.6054813 -4.7792281,-3.239542 Z"
           id="path25007" />
        <path
           style="fill:none;fill-opacity:0.75;fill-rule:evenodd;stroke:context-stroke;stroke-width:1pt"
           d="M 4.4598789,0.08866574 C -2.5564571,-4.378332 5.2248769,-3.9061806 -0.84829578,-8.7197331"
           id="path25009" />
        <path
           style="fill:none;fill-opacity:0.75;fill-rule:evenodd;stroke:context-stroke;stroke-width:1pt"
           d="M 4.9298719,0.05752074 C -1.3872731,1.7494689 1.8027579,5.4782079 -4.9448731,7.5462725"
           id="path25011" />
        <rect
           style="fill:context-stroke;fill-rule:evenodd;stroke-width:1pt"
           width="2.6366582"
           height="2.7608147"
           x="-10.391706"
           y="-1.7408575"
           transform="matrix(0.527536,-0.849533,0.887668,0.460484,0,0)"
           id="rect25013" />
        <rect
           style="fill:context-stroke;fill-rule:evenodd;stroke-width:1pt"
           width="2.7327356"
           height="2.8614161"
           x="4.9587269"
           y="-7.9629307"
           transform="matrix(0.671205,-0.741272,0.790802,0.612072,0,0)"
           id="rect25015" />
        <path
           style="fill:#ff0000;fill-opacity:0.75;fill-rule:evenodd;stroke:context-stroke;stroke-width:1pt"
           d="m 16.779951,-28.685045 a 0.60731727,0.60731727 0 1 0 -1.214634,0 0.60731727,0.60731727 0 1 0 1.214634,0 z"
           transform="matrix(0,-1.109517,1.109517,0,25.96648,19.71619)"
           id="path25017" />
        <path
           style="fill:#ff0000;fill-opacity:0.75;fill-rule:evenodd;stroke:context-stroke;stroke-width:1pt"
           d="m 16.779951,-28.685045 a 0.60731727,0.60731727 0 1 0 -1.214634,0 0.60731727,0.60731727 0 1 0 1.214634,0 z"
           transform="matrix(0,-1.109517,1.109517,0,26.8245,16.99126)"
           id="path25019" />
      </g>
    </marker>
    <marker
       style="overflow:visible"
       id="StopL"
       refX="0"
       refY="0"
       orient="auto"
       inkscape:stockid="StopL"
       inkscape:isstock="true">
      <path
         transform="scale(0.8)"
         style="fill:none;fill-opacity:0.75;fill-rule:evenodd;stroke:context-stroke;stroke-width:1pt"
         d="M 0,5.65 V -5.65"
         id="path24964" />
    </marker>
    <marker
       style="overflow:visible"
       id="StopL-6"
       refX="0"
       refY="0"
       orient="auto"
       inkscape:stockid="StopL"
       inkscape:isstock="true">
      <path
         transform="scale(0.8)"
         style="fill:none;fill-opacity:0.75;fill-rule:evenodd;stroke:context-stroke;stroke-width:1pt"
         d="M 0,5.65 V -5.65"
         id="path24964-1" />
    </marker>
    <marker
       style="overflow:visible"
       id="StopL-9"
       refX="0"
       refY="0"
       orient="auto"
       inkscape:stockid="StopL"
       inkscape:isstock="true">
      <path
         transform="scale(0.8)"
         style="fill:none;fill-opacity:0.75;fill-rule:evenodd;stroke:context-stroke;stroke-width:1pt"
         d="M 0,5.65 V -5.65"
         id="path24964-12" />
    </marker>
  </defs>
  <g
     inkscape:label="Calque 1"
     inkscape:groupmode="layer"
     id="layer1"
     transform="translate(68.342498,-94.543042)">
    <rect
       style="fill:#ffffff;fill-opacity:1;stroke:#000000;stroke-width:0.264998;stroke-linecap:round;stroke-linejoin:round;stroke-miterlimit:4;stroke-dasharray:none;stroke-dashoffset:0;stroke-opacity:1"
       id="rect1951-59-6-7-7-9-3"
       width="40.32045"
       height="89.709885"
       x="68.243767"
       y="306.38248"
       ry="9.1540699" />
    <rect
       style="fill:#ffffff;fill-opacity:1;stroke:#000000;stroke-width:0.264998;stroke-linecap:round;stroke-linejoin:round;stroke-miterlimit:4;stroke-dasharray:none;stroke-dashoffset:0;stroke-opacity:1"
       id="rect1951-59-6-7-7-9"
       width="40.32045"
       height="89.709885"
       x="64.354126"
       y="298.81302"
       ry="9.1540699" />
    <rect
       style="fill:none;fill-opacity:1;stroke:#000000;stroke-width:0.265;stroke-linecap:round;stroke-linejoin:round;stroke-miterlimit:4;stroke-dasharray:3.17999, 3.17999;stroke-dashoffset:0;stroke-opacity:1"
       id="rect40956"
       width="164.68442"
       height="224.69415"
       x="-27.687321"
       y="185.69971"
       ry="14.839184" />
    <ellipse
       style="fill:none;fill-opacity:0.427451;stroke:#000000;stroke-width:0.264998;stroke-linecap:round;stroke-linejoin:round;stroke-miterlimit:4;stroke-dasharray:0.264998, 1.06;stroke-dashoffset:0;stroke-opacity:1"
       id="path1659"
       cx="12.521227"
       cy="389.32285"
       transform="matrix(0.79034974,-0.61265594,0.6124014,0.79054698,0,0)"
       rx="86.092163"
       ry="86.099312" />
    <ellipse
       style="fill:none;fill-opacity:0.427451;stroke:#000000;stroke-width:0.264998;stroke-linecap:round;stroke-linejoin:round;stroke-miterlimit:4;stroke-dasharray:0.264998, 1.06;stroke-dashoffset:0;stroke-opacity:1"
       id="path1659-8"
       cx="39.071239"
       cy="422.68298"
       transform="matrix(0.79034974,-0.61265594,0.6124014,0.79054698,0,0)"
       rx="127.61897"
       ry="127.62956" />
    <ellipse
       style="fill:none;fill-opacity:0.427451;stroke:#000000;stroke-width:0.264998;stroke-linecap:round;stroke-linejoin:round;stroke-miterlimit:4;stroke-dasharray:0.264998, 1.06;stroke-dashoffset:0;stroke-opacity:1"
       id="path1659-8-7"
       cx="72.821198"
       cy="452.8681"
       transform="matrix(0.79034974,-0.61265594,0.6124014,0.79054698,0,0)"
       rx="172.78423"
       ry="172.79857" />
    <rect
       style="fill:#000000;fill-opacity:0.427451;stroke:#000000;stroke-width:0.264998;stroke-linecap:round;stroke-linejoin:round;stroke-miterlimit:4;stroke-dasharray:none;stroke-dashoffset:0;stroke-opacity:1"
       id="rect4453"
       width="70.634689"
       height="29.79357"
       x="177.75861"
       y="286.8714"
       ry="0.9469837" />
    <rect
       style="fill:#000000;fill-opacity:0.427451;stroke:#000000;stroke-width:0.265;stroke-linecap:round;stroke-linejoin:round;stroke-miterlimit:4;stroke-dasharray:none;stroke-dashoffset:0;stroke-opacity:1"
       id="rect92"
       width="113.64831"
       height="67.134834"
       x="344.39755"
       y="318.18417" />
    <rect
       style="fill:#000000;fill-opacity:0.427451;stroke:#000000;stroke-width:0.264998;stroke-linecap:round;stroke-linejoin:round;stroke-miterlimit:4;stroke-dasharray:none;stroke-dashoffset:0;stroke-opacity:1"
       id="rect1951"
       width="100.02949"
       height="55.001095"
       x="351.41302"
       y="324.1683"
       ry="5.6123576" />
    <rect
       style="fill:#000000;fill-opacity:0.427451;stroke:#000000;stroke-width:0.264998;stroke-linecap:round;stroke-linejoin:round;stroke-miterlimit:4;stroke-dasharray:none;stroke-dashoffset:0;stroke-opacity:1"
       id="rect1951-5"
       width="5.9966822"
       height="6.3328714"
       x="350.04691"
       y="391.33801"
       ry="0.64621127" />
    <rect
       style="fill:#000000;fill-opacity:0.427451;stroke:#000000;stroke-width:0.264998;stroke-linecap:round;stroke-linejoin:round;stroke-miterlimit:4;stroke-dasharray:none;stroke-dashoffset:0;stroke-opacity:1"
       id="rect1951-5-3"
       width="5.9966822"
       height="6.3328714"
       x="350.04691"
       y="397.67087"
       ry="0.64621127" />
    <rect
       style="fill:#000000;fill-opacity:0.427451;stroke:#000000;stroke-width:0.264998;stroke-linecap:round;stroke-linejoin:round;stroke-miterlimit:4;stroke-dasharray:none;stroke-dashoffset:0;stroke-opacity:1"
       id="rect1951-5-5"
       width="5.9966822"
       height="6.3328714"
       x="350.04691"
       y="404.00372"
       ry="0.64621127" />
    <rect
       style="fill:#000000;fill-opacity:0.427451;stroke:#000000;stroke-width:0.264998;stroke-linecap:round;stroke-linejoin:round;stroke-miterlimit:4;stroke-dasharray:none;stroke-dashoffset:0;stroke-opacity:1"
       id="rect1951-5-4"
       width="5.9966822"
       height="6.3328714"
       x="350.04691"
       y="410.33658"
       ry="0.64621127" />
    <rect
       style="fill:#000000;fill-opacity:0.427451;stroke:#000000;stroke-width:0.264998;stroke-linecap:round;stroke-linejoin:round;stroke-miterlimit:4;stroke-dasharray:none;stroke-dashoffset:0;stroke-opacity:1"
       id="rect1951-5-59"
       width="5.9966822"
       height="6.3328714"
       x="356.04361"
       y="391.33801"
       ry="0.64621127" />
    <rect
       style="fill:#000000;fill-opacity:0.427451;stroke:#000000;stroke-width:0.264998;stroke-linecap:round;stroke-linejoin:round;stroke-miterlimit:4;stroke-dasharray:none;stroke-dashoffset:0;stroke-opacity:1"
       id="rect1951-5-3-5"
       width="5.9966822"
       height="6.3328714"
       x="356.04361"
       y="397.67087"
       ry="0.64621127" />
    <rect
       style="fill:#000000;fill-opacity:0.427451;stroke:#000000;stroke-width:0.264998;stroke-linecap:round;stroke-linejoin:round;stroke-miterlimit:4;stroke-dasharray:none;stroke-dashoffset:0;stroke-opacity:1"
       id="rect1951-5-5-4"
       width="5.9966822"
       height="6.3328714"
       x="356.04361"
       y="404.00372"
       ry="0.64621127" />
    <rect
       style="fill:#000000;fill-opacity:0.427451;stroke:#000000;stroke-width:0.264998;stroke-linecap:round;stroke-linejoin:round;stroke-miterlimit:4;stroke-dasharray:none;stroke-dashoffset:0;stroke-opacity:1"
       id="rect1951-5-4-9"
       width="5.9966822"
       height="6.3328714"
       x="356.04361"
       y="410.33658"
       ry="0.64621127" />
    <rect
       style="fill:#000000;fill-opacity:0.427451;stroke:#000000;stroke-width:0.264998;stroke-linecap:round;stroke-linejoin:round;stroke-miterlimit:4;stroke-dasharray:none;stroke-dashoffset:0;stroke-opacity:1"
       id="rect1951-5-59-5"
       width="5.9966822"
       height="6.3328714"
       x="362.04031"
       y="391.33801"
       ry="0.64621127" />
    <rect
       style="fill:#000000;fill-opacity:0.427451;stroke:#000000;stroke-width:0.264998;stroke-linecap:round;stroke-linejoin:round;stroke-miterlimit:4;stroke-dasharray:none;stroke-dashoffset:0;stroke-opacity:1"
       id="rect1951-5-3-5-5"
       width="5.9966822"
       height="6.3328714"
       x="362.04031"
       y="397.67087"
       ry="0.64621127" />
    <rect
       style="fill:#000000;fill-opacity:0.427451;stroke:#000000;stroke-width:0.264998;stroke-linecap:round;stroke-linejoin:round;stroke-miterlimit:4;stroke-dasharray:none;stroke-dashoffset:0;stroke-opacity:1"
       id="rect1951-5-5-4-4"
       width="5.9966822"
       height="6.3328714"
       x="362.04031"
       y="404.00372"
       ry="0.64621127" />
    <rect
       style="fill:#000000;fill-opacity:0.427451;stroke:#000000;stroke-width:0.264998;stroke-linecap:round;stroke-linejoin:round;stroke-miterlimit:4;stroke-dasharray:none;stroke-dashoffset:0;stroke-opacity:1"
       id="rect1951-5-4-9-1"
       width="5.9966822"
       height="6.3328714"
       x="362.04031"
       y="410.33658"
       ry="0.64621127" />
    <rect
       style="fill:#000000;fill-opacity:0.427451;stroke:#000000;stroke-width:0.264998;stroke-linecap:round;stroke-linejoin:round;stroke-miterlimit:4;stroke-dasharray:none;stroke-dashoffset:0;stroke-opacity:1"
       id="rect1951-5-2"
       width="5.9966822"
       height="6.3328714"
       x="368.03702"
       y="391.33801"
       ry="0.64621127" />
    <rect
       style="fill:#000000;fill-opacity:0.427451;stroke:#000000;stroke-width:0.264998;stroke-linecap:round;stroke-linejoin:round;stroke-miterlimit:4;stroke-dasharray:none;stroke-dashoffset:0;stroke-opacity:1"
       id="rect1951-5-3-2"
       width="5.9966822"
       height="6.3328714"
       x="368.03702"
       y="397.67087"
       ry="0.64621127" />
    <rect
       style="fill:#000000;fill-opacity:0.427451;stroke:#000000;stroke-width:0.264998;stroke-linecap:round;stroke-linejoin:round;stroke-miterlimit:4;stroke-dasharray:none;stroke-dashoffset:0;stroke-opacity:1"
       id="rect1951-5-5-6"
       width="5.9966822"
       height="6.3328714"
       x="368.03702"
       y="404.00372"
       ry="0.64621127" />
    <rect
       style="fill:#000000;fill-opacity:0.427451;stroke:#000000;stroke-width:0.264998;stroke-linecap:round;stroke-linejoin:round;stroke-miterlimit:4;stroke-dasharray:none;stroke-dashoffset:0;stroke-opacity:1"
       id="rect1951-5-4-6"
       width="5.9966822"
       height="6.3328714"
       x="368.03702"
       y="410.33658"
       ry="0.64621127" />
    <rect
       style="fill:#000000;fill-opacity:0.427451;stroke:#000000;stroke-width:0.264998;stroke-linecap:round;stroke-linejoin:round;stroke-miterlimit:4;stroke-dasharray:none;stroke-dashoffset:0;stroke-opacity:1"
       id="rect1951-5-59-7"
       width="5.9966822"
       height="6.3328714"
       x="374.03372"
       y="391.33801"
       ry="0.64621127" />
    <rect
       style="fill:#000000;fill-opacity:0.427451;stroke:#000000;stroke-width:0.264998;stroke-linecap:round;stroke-linejoin:round;stroke-miterlimit:4;stroke-dasharray:none;stroke-dashoffset:0;stroke-opacity:1"
       id="rect1951-5-3-5-8"
       width="5.9966822"
       height="6.3328714"
       x="374.03372"
       y="397.67087"
       ry="0.64621127" />
    <rect
       style="fill:#000000;fill-opacity:0.427451;stroke:#000000;stroke-width:0.264998;stroke-linecap:round;stroke-linejoin:round;stroke-miterlimit:4;stroke-dasharray:none;stroke-dashoffset:0;stroke-opacity:1"
       id="rect1951-5-5-4-41"
       width="5.9966822"
       height="6.3328714"
       x="374.03372"
       y="404.00372"
       ry="0.64621127" />
    <rect
       style="fill:#000000;fill-opacity:0.427451;stroke:#000000;stroke-width:0.264998;stroke-linecap:round;stroke-linejoin:round;stroke-miterlimit:4;stroke-dasharray:none;stroke-dashoffset:0;stroke-opacity:1"
       id="rect1951-5-4-9-7"
       width="5.9966822"
       height="6.3328714"
       x="374.03372"
       y="410.33658"
       ry="0.64621127" />
    <rect
       style="fill:#000000;fill-opacity:0.427451;stroke:#000000;stroke-width:0.264998;stroke-linecap:round;stroke-linejoin:round;stroke-miterlimit:4;stroke-dasharray:none;stroke-dashoffset:0;stroke-opacity:1"
       id="rect1951-5-59-5-1"
       width="5.9966822"
       height="6.3328714"
       x="380.03036"
       y="391.33801"
       ry="0.64621127" />
    <rect
       style="fill:#000000;fill-opacity:0.427451;stroke:#000000;stroke-width:0.264998;stroke-linecap:round;stroke-linejoin:round;stroke-miterlimit:4;stroke-dasharray:none;stroke-dashoffset:0;stroke-opacity:1"
       id="rect1951-5-3-5-5-8"
       width="5.9966822"
       height="6.3328714"
       x="380.03036"
       y="397.67087"
       ry="0.64621127" />
    <rect
       style="fill:#000000;fill-opacity:0.427451;stroke:#000000;stroke-width:0.264998;stroke-linecap:round;stroke-linejoin:round;stroke-miterlimit:4;stroke-dasharray:none;stroke-dashoffset:0;stroke-opacity:1"
       id="rect1951-5-5-4-4-7"
       width="5.9966822"
       height="6.3328714"
       x="380.03036"
       y="404.00372"
       ry="0.64621127" />
    <rect
       style="fill:#000000;fill-opacity:0.427451;stroke:#000000;stroke-width:0.264998;stroke-linecap:round;stroke-linejoin:round;stroke-miterlimit:4;stroke-dasharray:none;stroke-dashoffset:0;stroke-opacity:1"
       id="rect1951-5-4-9-1-8"
       width="5.9966822"
       height="6.3328714"
       x="380.03036"
       y="410.33658"
       ry="0.64621127" />
    <rect
       style="fill:#000000;fill-opacity:0.427451;stroke:#000000;stroke-width:0.264998;stroke-linecap:round;stroke-linejoin:round;stroke-miterlimit:4;stroke-dasharray:none;stroke-dashoffset:0;stroke-opacity:1"
       id="rect1951-5-7"
       width="5.9966822"
       height="6.3328714"
       x="386.02707"
       y="391.33801"
       ry="0.64621127" />
    <rect
       style="fill:#000000;fill-opacity:0.427451;stroke:#000000;stroke-width:0.264998;stroke-linecap:round;stroke-linejoin:round;stroke-miterlimit:4;stroke-dasharray:none;stroke-dashoffset:0;stroke-opacity:1"
       id="rect1951-5-3-1"
       width="5.9966822"
       height="6.3328714"
       x="386.02707"
       y="397.67087"
       ry="0.64621127" />
    <rect
       style="fill:#000000;fill-opacity:0.427451;stroke:#000000;stroke-width:0.264998;stroke-linecap:round;stroke-linejoin:round;stroke-miterlimit:4;stroke-dasharray:none;stroke-dashoffset:0;stroke-opacity:1"
       id="rect1951-5-5-5"
       width="5.9966822"
       height="6.3328714"
       x="386.02707"
       y="404.00372"
       ry="0.64621127" />
    <rect
       style="fill:#000000;fill-opacity:0.427451;stroke:#000000;stroke-width:0.264998;stroke-linecap:round;stroke-linejoin:round;stroke-miterlimit:4;stroke-dasharray:none;stroke-dashoffset:0;stroke-opacity:1"
       id="rect1951-5-4-2"
       width="5.9966822"
       height="6.3328714"
       x="386.02707"
       y="410.33658"
       ry="0.64621127" />
    <rect
       style="fill:#000000;fill-opacity:0.427451;stroke:#000000;stroke-width:0.264998;stroke-linecap:round;stroke-linejoin:round;stroke-miterlimit:4;stroke-dasharray:none;stroke-dashoffset:0;stroke-opacity:1"
       id="rect1951-5-59-1"
       width="5.9966822"
       height="6.3328714"
       x="392.02374"
       y="391.33801"
       ry="0.64621127" />
    <rect
       style="fill:#000000;fill-opacity:0.427451;stroke:#000000;stroke-width:0.264998;stroke-linecap:round;stroke-linejoin:round;stroke-miterlimit:4;stroke-dasharray:none;stroke-dashoffset:0;stroke-opacity:1"
       id="rect1951-5-3-5-1"
       width="5.9966822"
       height="6.3328714"
       x="392.02374"
       y="397.67087"
       ry="0.64621127" />
    <rect
       style="fill:#000000;fill-opacity:0.427451;stroke:#000000;stroke-width:0.264998;stroke-linecap:round;stroke-linejoin:round;stroke-miterlimit:4;stroke-dasharray:none;stroke-dashoffset:0;stroke-opacity:1"
       id="rect1951-5-5-4-0"
       width="5.9966822"
       height="6.3328714"
       x="392.02374"
       y="404.00372"
       ry="0.64621127" />
    <rect
       style="fill:#000000;fill-opacity:0.427451;stroke:#000000;stroke-width:0.264998;stroke-linecap:round;stroke-linejoin:round;stroke-miterlimit:4;stroke-dasharray:none;stroke-dashoffset:0;stroke-opacity:1"
       id="rect1951-5-59-5-7"
       width="5.9966822"
       height="6.3328714"
       x="398.02045"
       y="391.33801"
       ry="0.64621127" />
    <rect
       style="fill:#000000;fill-opacity:0.427451;stroke:#000000;stroke-width:0.264998;stroke-linecap:round;stroke-linejoin:round;stroke-miterlimit:4;stroke-dasharray:none;stroke-dashoffset:0;stroke-opacity:1"
       id="rect1951-5-3-5-5-6"
       width="5.9966822"
       height="6.3328714"
       x="398.02045"
       y="397.67087"
       ry="0.64621127" />
    <rect
       style="fill:#000000;fill-opacity:0.427451;stroke:#000000;stroke-width:0.264998;stroke-linecap:round;stroke-linejoin:round;stroke-miterlimit:4;stroke-dasharray:none;stroke-dashoffset:0;stroke-opacity:1"
       id="rect1951-5-5-4-4-0"
       width="5.9966822"
       height="6.3328714"
       x="398.02045"
       y="404.00372"
       ry="0.64621127" />
    <rect
       style="fill:#000000;fill-opacity:0.427451;stroke:#000000;stroke-width:0.264998;stroke-linecap:round;stroke-linejoin:round;stroke-miterlimit:4;stroke-dasharray:none;stroke-dashoffset:0;stroke-opacity:1"
       id="rect1951-5-2-9"
       width="5.9966822"
       height="6.3328714"
       x="404.01718"
       y="391.33801"
       ry="0.64621127" />
    <rect
       style="fill:#000000;fill-opacity:0.427451;stroke:#000000;stroke-width:0.264998;stroke-linecap:round;stroke-linejoin:round;stroke-miterlimit:4;stroke-dasharray:none;stroke-dashoffset:0;stroke-opacity:1"
       id="rect1951-5-3-2-5"
       width="5.9966822"
       height="6.3328714"
       x="404.01718"
       y="397.67087"
       ry="0.64621127" />
    <rect
       style="fill:#000000;fill-opacity:0.427451;stroke:#000000;stroke-width:0.264998;stroke-linecap:round;stroke-linejoin:round;stroke-miterlimit:4;stroke-dasharray:none;stroke-dashoffset:0;stroke-opacity:1"
       id="rect1951-5-5-6-6"
       width="5.9966822"
       height="6.3328714"
       x="404.01718"
       y="404.00372"
       ry="0.64621127" />
    <rect
       style="fill:#000000;fill-opacity:0.427451;stroke:#000000;stroke-width:0.264998;stroke-linecap:round;stroke-linejoin:round;stroke-miterlimit:4;stroke-dasharray:none;stroke-dashoffset:0;stroke-opacity:1"
       id="rect1951-5-4-6-2"
       width="29.983456"
       height="6.3328714"
       x="392.02374"
       y="410.33658"
       ry="0.64621127" />
    <rect
       style="fill:#000000;fill-opacity:0.427451;stroke:#000000;stroke-width:0.264998;stroke-linecap:round;stroke-linejoin:round;stroke-miterlimit:4;stroke-dasharray:none;stroke-dashoffset:0;stroke-opacity:1"
       id="rect1951-5-59-7-8"
       width="5.9966822"
       height="6.3328714"
       x="410.01389"
       y="391.33801"
       ry="0.64621127" />
    <rect
       style="fill:#000000;fill-opacity:0.427451;stroke:#000000;stroke-width:0.264998;stroke-linecap:round;stroke-linejoin:round;stroke-miterlimit:4;stroke-dasharray:none;stroke-dashoffset:0;stroke-opacity:1"
       id="rect1951-5-3-5-8-5"
       width="5.9966822"
       height="6.3328714"
       x="410.01389"
       y="397.67087"
       ry="0.64621127" />
    <rect
       style="fill:#000000;fill-opacity:0.427451;stroke:#000000;stroke-width:0.264998;stroke-linecap:round;stroke-linejoin:round;stroke-miterlimit:4;stroke-dasharray:none;stroke-dashoffset:0;stroke-opacity:1"
       id="rect1951-5-5-4-41-9"
       width="5.9966822"
       height="6.3328714"
       x="410.01389"
       y="404.00372"
       ry="0.64621127" />
    <rect
       style="fill:#000000;fill-opacity:0.427451;stroke:#000000;stroke-width:0.264998;stroke-linecap:round;stroke-linejoin:round;stroke-miterlimit:4;stroke-dasharray:none;stroke-dashoffset:0;stroke-opacity:1"
       id="rect1951-5-59-5-1-3"
       width="5.9966822"
       height="6.3328714"
       x="416.01059"
       y="391.33801"
       ry="0.64621127" />
    <rect
       style="fill:#000000;fill-opacity:0.427451;stroke:#000000;stroke-width:0.264998;stroke-linecap:round;stroke-linejoin:round;stroke-miterlimit:4;stroke-dasharray:none;stroke-dashoffset:0;stroke-opacity:1"
       id="rect1951-5-3-5-5-8-9"
       width="5.9966822"
       height="6.3328714"
       x="416.01059"
       y="397.67087"
       ry="0.64621127" />
    <rect
       style="fill:#000000;fill-opacity:0.427451;stroke:#000000;stroke-width:0.264998;stroke-linecap:round;stroke-linejoin:round;stroke-miterlimit:4;stroke-dasharray:none;stroke-dashoffset:0;stroke-opacity:1"
       id="rect1951-5-5-4-4-7-0"
       width="5.9966822"
       height="6.3328714"
       x="416.01059"
       y="404.00372"
       ry="0.64621127" />
    <rect
       style="fill:#000000;fill-opacity:0.427451;stroke:#000000;stroke-width:0.264998;stroke-linecap:round;stroke-linejoin:round;stroke-miterlimit:4;stroke-dasharray:none;stroke-dashoffset:0;stroke-opacity:1"
       id="rect1951-5-7-6"
       width="5.9966822"
       height="6.3328714"
       x="422.00726"
       y="391.33801"
       ry="0.64621127" />
    <rect
       style="fill:#000000;fill-opacity:0.427451;stroke:#000000;stroke-width:0.264998;stroke-linecap:round;stroke-linejoin:round;stroke-miterlimit:4;stroke-dasharray:none;stroke-dashoffset:0;stroke-opacity:1"
       id="rect1951-5-3-1-3"
       width="5.9966822"
       height="6.3328714"
       x="422.00726"
       y="397.67087"
       ry="0.64621127" />
    <rect
       style="fill:#000000;fill-opacity:0.427451;stroke:#000000;stroke-width:0.264998;stroke-linecap:round;stroke-linejoin:round;stroke-miterlimit:4;stroke-dasharray:none;stroke-dashoffset:0;stroke-opacity:1"
       id="rect1951-5-5-5-6"
       width="5.9966822"
       height="6.3328714"
       x="422.00726"
       y="404.00372"
       ry="0.64621127" />
    <rect
       style="fill:#000000;fill-opacity:0.427451;stroke:#000000;stroke-width:0.264998;stroke-linecap:round;stroke-linejoin:round;stroke-miterlimit:4;stroke-dasharray:none;stroke-dashoffset:0;stroke-opacity:1"
       id="rect1951-5-4-2-3"
       width="5.9966822"
       height="6.3328714"
       x="422.00726"
       y="410.33658"
       ry="0.64621127" />
    <rect
       style="fill:#000000;fill-opacity:0.427451;stroke:#000000;stroke-width:0.264998;stroke-linecap:round;stroke-linejoin:round;stroke-miterlimit:4;stroke-dasharray:none;stroke-dashoffset:0;stroke-opacity:1"
       id="rect1951-5-59-1-0"
       width="5.9966822"
       height="6.3328714"
       x="428.00397"
       y="391.33801"
       ry="0.64621127" />
    <rect
       style="fill:#000000;fill-opacity:0.427451;stroke:#000000;stroke-width:0.264998;stroke-linecap:round;stroke-linejoin:round;stroke-miterlimit:4;stroke-dasharray:none;stroke-dashoffset:0;stroke-opacity:1"
       id="rect1951-5-3-5-1-8"
       width="5.9966822"
       height="6.3328714"
       x="428.00397"
       y="397.67087"
       ry="0.64621127" />
    <rect
       style="fill:#000000;fill-opacity:0.427451;stroke:#000000;stroke-width:0.264998;stroke-linecap:round;stroke-linejoin:round;stroke-miterlimit:4;stroke-dasharray:none;stroke-dashoffset:0;stroke-opacity:1"
       id="rect1951-5-5-4-0-4"
       width="5.9966822"
       height="6.3328714"
       x="428.00397"
       y="404.00372"
       ry="0.64621127" />
    <rect
       style="fill:#000000;fill-opacity:0.427451;stroke:#000000;stroke-width:0.264998;stroke-linecap:round;stroke-linejoin:round;stroke-miterlimit:4;stroke-dasharray:none;stroke-dashoffset:0;stroke-opacity:1"
       id="rect1951-5-4-9-18-0"
       width="5.9966822"
       height="6.3328714"
       x="428.00397"
       y="410.33658"
       ry="0.64621127" />
    <rect
       style="fill:#000000;fill-opacity:0.427451;stroke:#000000;stroke-width:0.264998;stroke-linecap:round;stroke-linejoin:round;stroke-miterlimit:4;stroke-dasharray:none;stroke-dashoffset:0;stroke-opacity:1"
       id="rect1951-5-59-5-7-4"
       width="5.9966822"
       height="6.3328714"
       x="434.00067"
       y="391.33801"
       ry="0.64621127" />
    <rect
       style="fill:#000000;fill-opacity:0.427451;stroke:#000000;stroke-width:0.264998;stroke-linecap:round;stroke-linejoin:round;stroke-miterlimit:4;stroke-dasharray:none;stroke-dashoffset:0;stroke-opacity:1"
       id="rect1951-5-3-5-5-6-6"
       width="5.9966822"
       height="6.3328714"
       x="434.00067"
       y="397.67087"
       ry="0.64621127" />
    <rect
       style="fill:#000000;fill-opacity:0.427451;stroke:#000000;stroke-width:0.264998;stroke-linecap:round;stroke-linejoin:round;stroke-miterlimit:4;stroke-dasharray:none;stroke-dashoffset:0;stroke-opacity:1"
       id="rect1951-5-5-4-4-0-4"
       width="5.9966822"
       height="6.3328714"
       x="434.00067"
       y="404.00372"
       ry="0.64621127" />
    <rect
       style="fill:#000000;fill-opacity:0.427451;stroke:#000000;stroke-width:0.264998;stroke-linecap:round;stroke-linejoin:round;stroke-miterlimit:4;stroke-dasharray:none;stroke-dashoffset:0;stroke-opacity:1"
       id="rect1951-5-4-9-1-0-6"
       width="5.9966822"
       height="6.3328714"
       x="434.00067"
       y="410.33658"
       ry="0.64621127" />
    <rect
       style="fill:#000000;fill-opacity:0.427451;stroke:#000000;stroke-width:0.264998;stroke-linecap:round;stroke-linejoin:round;stroke-miterlimit:4;stroke-dasharray:none;stroke-dashoffset:0;stroke-opacity:1"
       id="rect1951-5-2-9-4"
       width="5.9966822"
       height="6.3328714"
       x="439.99734"
       y="391.33801"
       ry="0.64621127" />
    <rect
       style="fill:#000000;fill-opacity:0.427451;stroke:#000000;stroke-width:0.264998;stroke-linecap:round;stroke-linejoin:round;stroke-miterlimit:4;stroke-dasharray:none;stroke-dashoffset:0;stroke-opacity:1"
       id="rect1951-5-3-2-5-3"
       width="5.9966822"
       height="6.3328714"
       x="439.99734"
       y="397.67087"
       ry="0.64621127" />
    <rect
       style="fill:#000000;fill-opacity:0.427451;stroke:#000000;stroke-width:0.264998;stroke-linecap:round;stroke-linejoin:round;stroke-miterlimit:4;stroke-dasharray:none;stroke-dashoffset:0;stroke-opacity:1"
       id="rect1951-5-5-6-6-8"
       width="5.9966822"
       height="6.3328714"
       x="439.99734"
       y="404.00372"
       ry="0.64621127" />
    <rect
       style="fill:#000000;fill-opacity:0.427451;stroke:#000000;stroke-width:0.264998;stroke-linecap:round;stroke-linejoin:round;stroke-miterlimit:4;stroke-dasharray:none;stroke-dashoffset:0;stroke-opacity:1"
       id="rect1951-5-4-6-2-4"
       width="5.9966822"
       height="6.3328714"
       x="439.99734"
       y="410.33658"
       ry="0.64621127" />
    <rect
       style="fill:#000000;fill-opacity:0.427451;stroke:#000000;stroke-width:0.264998;stroke-linecap:round;stroke-linejoin:round;stroke-miterlimit:4;stroke-dasharray:none;stroke-dashoffset:0;stroke-opacity:1"
       id="rect1951-5-59-7-8-0"
       width="5.9966822"
       height="6.3328714"
       x="445.99405"
       y="391.33801"
       ry="0.64621127" />
    <rect
       style="fill:#000000;fill-opacity:0.427451;stroke:#000000;stroke-width:0.264998;stroke-linecap:round;stroke-linejoin:round;stroke-miterlimit:4;stroke-dasharray:none;stroke-dashoffset:0;stroke-opacity:1"
       id="rect1951-5-3-5-8-5-0"
       width="5.9966822"
       height="6.3328714"
       x="445.99405"
       y="397.67087"
       ry="0.64621127" />
    <rect
       style="fill:#000000;fill-opacity:0.427451;stroke:#000000;stroke-width:0.264998;stroke-linecap:round;stroke-linejoin:round;stroke-miterlimit:4;stroke-dasharray:none;stroke-dashoffset:0;stroke-opacity:1"
       id="rect1951-5-5-4-41-9-9"
       width="5.9966822"
       height="6.3328714"
       x="445.99405"
       y="404.00372"
       ry="0.64621127" />
    <rect
       style="fill:#000000;fill-opacity:0.427451;stroke:#000000;stroke-width:0.264998;stroke-linecap:round;stroke-linejoin:round;stroke-miterlimit:4;stroke-dasharray:none;stroke-dashoffset:0;stroke-opacity:1"
       id="rect1951-5-4-9-7-4-3"
       width="5.9966822"
       height="6.3328714"
       x="445.99405"
       y="410.33658"
       ry="0.64621127" />
    <rect
       style="fill:#000000;fill-opacity:0.427451;stroke:#000000;stroke-width:0.264998;stroke-linecap:round;stroke-linejoin:round;stroke-miterlimit:4;stroke-dasharray:none;stroke-dashoffset:0;stroke-opacity:1"
       id="rect2731"
       width="113.64829"
       height="37.081928"
       x="344.39755"
       y="385.31897"
       ry="0" />
    <rect
       style="fill:#000000;fill-opacity:0.427451;stroke:#000000;stroke-width:0.264998;stroke-linecap:round;stroke-linejoin:round;stroke-miterlimit:4;stroke-dasharray:none;stroke-dashoffset:0;stroke-opacity:1"
       id="rect4349"
       width="18.369225"
       height="10.526838"
       x="181.38362"
       y="289.86288"
       ry="2.7573757" />
    <rect
       style="fill:#000000;fill-opacity:0.427451;stroke:#000000;stroke-width:0.264998;stroke-linecap:round;stroke-linejoin:round;stroke-miterlimit:4;stroke-dasharray:none;stroke-dashoffset:0;stroke-opacity:1"
       id="rect4349-0"
       width="18.369225"
       height="10.526838"
       x="181.38362"
       y="303.0542"
       ry="2.7573757" />
    <rect
       style="fill:#000000;fill-opacity:0.427451;stroke:#000000;stroke-width:0.264998;stroke-linecap:round;stroke-linejoin:round;stroke-miterlimit:4;stroke-dasharray:none;stroke-dashoffset:0;stroke-opacity:1"
       id="rect4349-0-2"
       width="13.858467"
       height="4.187665"
       x="183.54727"
       y="307.97321"
       ry="1.0969073" />
    <rect
       style="fill:#000000;fill-opacity:0.427451;stroke:#000000;stroke-width:0.264998;stroke-linecap:round;stroke-linejoin:round;stroke-miterlimit:4;stroke-dasharray:none;stroke-dashoffset:0;stroke-opacity:1"
       id="rect4349-0-2-3"
       width="13.858467"
       height="4.187665"
       x="183.80115"
       y="294.57742"
       ry="1.0969073" />
    <rect
       style="fill:#000000;fill-opacity:0.427451;stroke:#000000;stroke-width:0.264998;stroke-linecap:round;stroke-linejoin:round;stroke-miterlimit:4;stroke-dasharray:none;stroke-dashoffset:0;stroke-opacity:1"
       id="rect4349-9"
       width="18.369225"
       height="10.526838"
       x="202.78534"
       y="289.90436"
       ry="2.7573757" />
    <rect
       style="fill:#000000;fill-opacity:0.427451;stroke:#000000;stroke-width:0.264998;stroke-linecap:round;stroke-linejoin:round;stroke-miterlimit:4;stroke-dasharray:none;stroke-dashoffset:0;stroke-opacity:1"
       id="rect4349-0-9"
       width="18.369225"
       height="10.526838"
       x="202.78534"
       y="303.09564"
       ry="2.7573757" />
    <rect
       style="fill:#000000;fill-opacity:0.427451;stroke:#000000;stroke-width:0.264998;stroke-linecap:round;stroke-linejoin:round;stroke-miterlimit:4;stroke-dasharray:none;stroke-dashoffset:0;stroke-opacity:1"
       id="rect4349-0-2-7"
       width="13.858467"
       height="4.187665"
       x="204.94897"
       y="308.01465"
       ry="1.0969073" />
    <rect
       style="fill:#000000;fill-opacity:0.427451;stroke:#000000;stroke-width:0.264998;stroke-linecap:round;stroke-linejoin:round;stroke-miterlimit:4;stroke-dasharray:none;stroke-dashoffset:0;stroke-opacity:1"
       id="rect4349-0-2-3-0"
       width="13.858467"
       height="4.187665"
       x="205.20285"
       y="294.61887"
       ry="1.0969073" />
    <rect
       style="fill:#000000;fill-opacity:0.427451;stroke:#000000;stroke-width:0.264998;stroke-linecap:round;stroke-linejoin:round;stroke-opacity:1"
       id="rect1248"
       width="19.684483"
       height="16.951406"
       x="225.35512"
       y="296.87848"
       ry="2.7573757" />
    <text
       xml:space="preserve"
       style="font-style:normal;font-weight:normal;font-size:7.05556px;line-height:1.25;font-family:sans-serif;fill:#000000;fill-opacity:1;stroke:none;stroke-width:0.264583"
       x="383.24075"
       y="435.33569"
       id="text8700"
       transform="scale(0.99983374,1.0001663)"><tspan
         sodipodi:role="line"
         id="tspan8698"
         style="font-style:normal;font-variant:normal;font-weight:normal;font-stretch:normal;font-size:7.05556px;font-family:Hershey-Noailles-old-french;-inkscape-font-specification:Hershey-Noailles-old-french;stroke-width:0.264583"
         x="383.24075"
         y="435.33569">ordinateur </tspan><tspan
         sodipodi:role="line"
         style="font-style:normal;font-variant:normal;font-weight:normal;font-stretch:normal;font-size:7.05556px;font-family:Hershey-Noailles-timesir-1-1;-inkscape-font-specification:Hershey-Noailles-timesir-1-1;stroke-width:0.264583"
         x="383.24075"
         y="445.0065"
         id="tspan8702">computer</tspan></text>
    <text
       xml:space="preserve"
       style="font-style:normal;font-weight:normal;font-size:6.35px;line-height:1.25;font-family:sans-serif;fill:#000000;fill-opacity:1;stroke:none;stroke-width:0.264583"
       id="text8700-9"
       transform="translate(2.9102891,7.9372451)"><textPath
         xlink:href="#path16498"
         id="textPath16670"><tspan
           style="font-style:normal;font-variant:normal;font-weight:normal;font-stretch:normal;font-size:6.35px;font-family:Hershey-Noailles-old-french;-inkscape-font-specification:Hershey-Noailles-old-french;stroke-width:0.264583"
           id="tspan8702-4">déposer</tspan></textPath></text>
    <text
       xml:space="preserve"
       style="font-style:normal;font-weight:normal;font-size:6.35px;line-height:1.25;font-family:sans-serif;fill:#000000;fill-opacity:1;stroke:none;stroke-width:0.264583"
       id="text8700-9-3"
       transform="translate(8.5700702,0.18630587)"><textPath
         xlink:href="#path16918"
         id="textPath17033"><tspan
           style="font-style:normal;font-variant:normal;font-weight:normal;font-stretch:normal;font-size:6.35px;font-family:Hershey-Noailles-timesir-1-1;-inkscape-font-specification:Hershey-Noailles-timesir-1-1;stroke-width:0.264583"
           id="tspan8702-4-3">upload</tspan></textPath></text>
    <text
       xml:space="preserve"
       style="font-style:normal;font-weight:normal;font-size:7.05556px;line-height:1.25;font-family:sans-serif;fill:#000000;fill-opacity:1;stroke:none;stroke-width:0.264583"
       x="191.8356"
       y="277.07224"
       id="text8700-1"
       transform="scale(0.99983374,1.0001663)"><tspan
         sodipodi:role="line"
         style="font-style:normal;font-variant:normal;font-weight:normal;font-stretch:normal;font-size:7.05556px;font-family:Hershey-Noailles-old-french;-inkscape-font-specification:Hershey-Noailles-old-french;stroke-width:0.264583"
         x="191.8356"
         y="277.07224"
         id="tspan8702-8">Raspberry Pi</tspan></text>
    <text
       xml:space="preserve"
       style="font-style:normal;font-weight:normal;font-size:6.35px;line-height:1.25;font-family:sans-serif;fill:#000000;fill-opacity:1;stroke:none;stroke-width:0.264584"
       id="text8700-1-9"
       transform="translate(-1.5335837,3.0671674)"><textPath
         xlink:href="#path35819"
         id="textPath35919"
         style="font-style:normal;font-variant:normal;font-weight:normal;font-stretch:normal;font-size:6.35px;font-family:Hershey-Noailles-old-french;-inkscape-font-specification:Hershey-Noailles-old-french;stroke-width:0.264584">télécharger</textPath></text>
    <text
       xml:space="preserve"
       style="font-style:normal;font-weight:normal;font-size:6.35px;line-height:1.25;font-family:sans-serif;fill:#000000;fill-opacity:1;stroke:none;stroke-width:0.264584"
       id="text8700-1-9-0"
       transform="rotate(86.479185,292.31658,313.56871)"><textPath
         xlink:href="#path35819"
         id="textPath35919-6"
         style="font-style:normal;font-variant:normal;font-weight:normal;font-stretch:normal;font-size:6.35px;font-family:Hershey-Noailles-timesir-1-1;-inkscape-font-specification:Hershey-Noailles-timesir-1-1">download</textPath></text>
    <text
       xml:space="preserve"
       style="font-style:normal;font-weight:normal;font-size:7.05556px;line-height:1.25;font-family:sans-serif;fill:#000000;fill-opacity:1;stroke:none;stroke-width:0.264583"
       id="text8700-1-1"
       transform="rotate(-28.903457,334.11594,300.49683)"><textPath
         xlink:href="#path1659-8-7"
         id="textPath23752"
         style="font-style:normal;font-variant:normal;font-weight:normal;font-stretch:normal;font-size:7.05556px;font-family:Hershey-Noailles-old-french;-inkscape-font-specification:Hershey-Noailles-old-french;stroke-width:0.264583">réseau local hors ligne</textPath></text>
    <text
       xml:space="preserve"
       style="font-style:normal;font-weight:normal;font-size:7.05556px;line-height:1.25;font-family:sans-serif;fill:#000000;fill-opacity:1;stroke:none;stroke-width:0.264583"
       id="text8700-1-1-9"
       transform="rotate(-33.175928,290.50471,298.38503)"><textPath
         xlink:href="#path1659-8"
         id="textPath23755"
         style="font-style:normal;font-variant:normal;font-weight:normal;font-stretch:normal;font-size:7.05556px;font-family:Hershey-Noailles-timesir-1-1;-inkscape-font-specification:Hershey-Noailles-timesir-1-1;stroke-width:0.264583">offline local network</textPath></text>
    <path
       style="fill:none;stroke:#000000;stroke-width:0.264583px;stroke-linecap:butt;stroke-linejoin:miter;stroke-opacity:1;marker-end:url(#marker1578)"
       d="M 338.44961,404.1443 C 291.1038,418.99271 219.75376,388.8284 208.70834,324.26656"
       id="path24229"
       sodipodi:nodetypes="cc" />
    <path
       style="fill:none;stroke:#000000;stroke-width:0.265;stroke-linecap:butt;stroke-linejoin:miter;stroke-opacity:1;marker-end:url(#marker1578);stroke-miterlimit:4;stroke-dasharray:none"
       d="m 231.94052,265.14052 c 32.09013,-43.65031 133.42071,-36.831 135.58185,43.0959"
       id="path24229-2"
       sodipodi:nodetypes="cc" />
    <rect
       style="fill:#ffffff;fill-opacity:1;stroke:#000000;stroke-width:0.264998;stroke-linecap:round;stroke-linejoin:round;stroke-miterlimit:4;stroke-dasharray:none;stroke-dashoffset:0;stroke-opacity:1"
       id="rect1951-59"
       width="44.10075"
       height="58.681843"
       x="243.43739"
       y="-420.5621"
       ry="5.9879432"
       transform="scale(1,-1)" />
    <rect
       style="fill:#ffffff;fill-opacity:1;stroke:#000000;stroke-width:0.264998;stroke-linecap:round;stroke-linejoin:round;stroke-miterlimit:4;stroke-dasharray:none;stroke-dashoffset:0;stroke-opacity:1"
       id="rect1951-59-6"
       width="44.10075"
       height="58.681843"
       x="289.48462"
       y="208.95482"
       ry="5.9879432" />
    <text
       xml:space="preserve"
       style="font-style:normal;font-weight:normal;font-size:7.05556px;line-height:1.25;font-family:sans-serif;fill:#000000;fill-opacity:1;stroke:none;stroke-width:0.264583"
       x="256.1087"
       y="386.36719"
       id="text8700-6"
       transform="scale(0.99983373,1.0001663)"><tspan
         sodipodi:role="line"
         id="tspan8698-8"
         style="font-style:normal;font-variant:normal;font-weight:normal;font-stretch:normal;font-size:7.05556px;font-family:Hershey-Noailles-old-french;-inkscape-font-specification:Hershey-Noailles-old-french;stroke-width:0.264583"
         x="256.1087"
         y="386.36719">fichier</tspan><tspan
         sodipodi:role="line"
         style="font-style:normal;font-variant:normal;font-weight:normal;font-stretch:normal;font-size:7.05556px;font-family:Hershey-Noailles-timesir-1-1;-inkscape-font-specification:Hershey-Noailles-timesir-1-1;stroke-width:0.264583"
         x="256.1087"
         y="396.03799"
         id="tspan8702-9">file</tspan></text>
    <text
       xml:space="preserve"
       style="font-style:normal;font-weight:normal;font-size:7.05556px;line-height:1.25;font-family:sans-serif;fill:#000000;fill-opacity:1;stroke:none;stroke-width:0.264583"
       x="301.75342"
       y="232.94667"
       id="text8700-6-03"
       transform="scale(0.99983373,1.0001663)"><tspan
         sodipodi:role="line"
         id="tspan8698-8-2"
         style="font-style:normal;font-variant:normal;font-weight:normal;font-stretch:normal;font-size:7.05556px;font-family:Hershey-Noailles-old-french;-inkscape-font-specification:Hershey-Noailles-old-french;stroke-width:0.264583"
         x="301.75342"
         y="232.94667">fichier</tspan><tspan
         sodipodi:role="line"
         style="font-style:normal;font-variant:normal;font-weight:normal;font-stretch:normal;font-size:7.05556px;font-family:Hershey-Noailles-timesir-1-1;-inkscape-font-specification:Hershey-Noailles-timesir-1-1;stroke-width:0.264583"
         x="301.75342"
         y="242.61748"
         id="tspan8702-9-6">file</tspan></text>
    <path
       style="fill:none;stroke:none;stroke-width:0.264583px;stroke-linecap:butt;stroke-linejoin:miter;stroke-opacity:1"
       d="m 234.10354,254.33504 c 0,0 24.14433,-23.24095 52.38863,-23.92451"
       id="path35819" />
    <text
       xml:space="preserve"
       style="font-style:normal;font-weight:normal;font-size:7.05556px;line-height:1.25;font-family:sans-serif;fill:#000000;fill-opacity:1;stroke:none;stroke-width:0.264583"
       x="-12.016226"
       y="421.17307"
       id="text8700-1-2"
       transform="scale(0.99983373,1.0001663)"><tspan
         sodipodi:role="line"
         style="font-style:normal;font-variant:normal;font-weight:normal;font-stretch:normal;font-size:7.05556px;font-family:Hershey-Noailles-old-french;-inkscape-font-specification:Hershey-Noailles-old-french;stroke-width:0.264583"
         x="-12.016226"
         y="421.17307"
         id="tspan8702-8-9">base de donnée</tspan><tspan
         sodipodi:role="line"
         style="font-style:normal;font-variant:normal;font-weight:normal;font-stretch:normal;font-size:7.05556px;font-family:Hershey-Noailles-timesir-1-1;-inkscape-font-specification:Hershey-Noailles-timesir-1-1;stroke-width:0.264583"
         x="-12.016226"
         y="430.84387"
         id="tspan46915">database</tspan></text>
    <path
       style="fill:none;stroke:#000000;stroke-width:0.264583px;stroke-linecap:butt;stroke-linejoin:miter;stroke-opacity:1;marker-end:url(#TriangleOutL)"
       d="m 136.73515,300.08996 36.49499,0.147"
       id="path40830" />
    <path
       style="fill:none;stroke:#000000;stroke-width:0.265;stroke-linecap:butt;stroke-linejoin:miter;stroke-miterlimit:4;stroke-dasharray:none;stroke-opacity:1;marker-end:url(#marker1578)"
       d="M 177.69949,306.46437 H 143.41397"
       id="path40830-2" />
    <rect
       style="fill:none;fill-opacity:0.427451;stroke:#000000;stroke-width:0.264998;stroke-linecap:round;stroke-linejoin:round;stroke-miterlimit:4;stroke-dasharray:none;stroke-dashoffset:0;stroke-opacity:1"
       id="rect1951-5-59-7-7"
       width="19.134808"
       height="8.9778833"
       x="35.263222"
       y="240.5925"
       ry="0.91611046" />
    <rect
       style="fill:none;fill-opacity:0.427451;stroke:#000000;stroke-width:0.264998;stroke-linecap:round;stroke-linejoin:round;stroke-miterlimit:4;stroke-dasharray:none;stroke-dashoffset:0;stroke-opacity:1"
       id="rect1951-5-3-5-8-6"
       width="19.134808"
       height="8.9778833"
       x="35.263283"
       y="249.57039"
       ry="0.91611046" />
    <rect
       style="fill:none;fill-opacity:0.427451;stroke:#000000;stroke-width:0.264998;stroke-linecap:round;stroke-linejoin:round;stroke-miterlimit:4;stroke-dasharray:none;stroke-dashoffset:0;stroke-opacity:1"
       id="rect1951-5-59-5-1-4"
       width="19.134808"
       height="8.9778833"
       x="54.398026"
       y="240.5925"
       ry="0.91611046" />
    <rect
       style="fill:none;fill-opacity:0.427451;stroke:#000000;stroke-width:0.264998;stroke-linecap:round;stroke-linejoin:round;stroke-miterlimit:4;stroke-dasharray:none;stroke-dashoffset:0;stroke-opacity:1"
       id="rect1951-5-3-5-5-8-7"
       width="19.134808"
       height="8.9778833"
       x="54.398026"
       y="249.57039"
       ry="0.91611046" />
    <rect
       style="fill:none;fill-opacity:0.427451;stroke:#000000;stroke-width:0.264998;stroke-linecap:round;stroke-linejoin:round;stroke-miterlimit:4;stroke-dasharray:none;stroke-dashoffset:0;stroke-opacity:1"
       id="rect1951-5-7-66"
       width="19.134808"
       height="8.9778833"
       x="73.532913"
       y="240.5925"
       ry="0.91611046" />
    <rect
       style="fill:none;fill-opacity:0.427451;stroke:#000000;stroke-width:0.264998;stroke-linecap:round;stroke-linejoin:round;stroke-miterlimit:4;stroke-dasharray:none;stroke-dashoffset:0;stroke-opacity:1"
       id="rect1951-5-3-1-6"
       width="19.134808"
       height="8.9778833"
       x="73.532913"
       y="249.57039"
       ry="0.91611046" />
    <rect
       style="fill:#ffffff;fill-opacity:1;stroke:#000000;stroke-width:0.264998;stroke-linecap:round;stroke-linejoin:round;stroke-miterlimit:4;stroke-dasharray:none;stroke-dashoffset:0;stroke-opacity:1"
       id="rect1951-59-6-7"
       width="44.10075"
       height="58.681843"
       x="-11.014716"
       y="204.4381"
       ry="5.9879432" />
    <rect
       style="fill:#ffffff;fill-opacity:1;stroke:#000000;stroke-width:0.264998;stroke-linecap:round;stroke-linejoin:round;stroke-miterlimit:4;stroke-dasharray:none;stroke-dashoffset:0;stroke-opacity:1"
       id="rect1951-59-6-7-7"
       width="40.32"
       height="89.709885"
       x="58.072357"
       y="304.42673"
       ry="9.1540699" />
    <text
       xml:space="preserve"
       style="font-style:normal;font-weight:normal;font-size:6.35px;line-height:1.25;font-family:sans-serif;fill:#000000;fill-opacity:1;stroke:none;stroke-width:0.264583"
       x="67.435364"
       y="321.33807"
       id="text8700-6-7-5"
       transform="scale(0.99983373,1.0001663)"><tspan
         sodipodi:role="line"
         style="font-style:normal;font-variant:normal;font-weight:normal;font-stretch:normal;font-size:6.35px;font-family:Hershey-Noailles-old-french;-inkscape-font-specification:Hershey-Noailles-old-french;stroke-width:0.264583"
         x="67.435364"
         y="321.33807"
         id="tspan8702-9-7-7">doc 10</tspan></text>
    <text
       xml:space="preserve"
       style="font-style:normal;font-weight:normal;font-size:6.35px;line-height:1.25;font-family:sans-serif;fill:#000000;fill-opacity:1;stroke:none;stroke-width:0.264583"
       x="-5.0975285"
       y="198.73503"
       id="text8700-6-7-5-9"
       transform="scale(0.99983373,1.0001663)"><tspan
         sodipodi:role="line"
         style="font-style:normal;font-variant:normal;font-weight:normal;font-stretch:normal;font-size:6.35px;font-family:Hershey-Noailles-old-french;-inkscape-font-specification:Hershey-Noailles-old-french;stroke-width:0.264583"
         x="-5.0975285"
         y="198.73503"
         id="tspan8702-9-7-7-0">ID : doc 10</tspan></text>
    <text
       xml:space="preserve"
       style="font-style:normal;font-weight:normal;font-size:6.35px;line-height:1.25;font-family:sans-serif;fill:#000000;fill-opacity:1;stroke:none;stroke-width:0.264583"
       x="67.62915"
       y="333.47037"
       id="text8700-6-7-5-8"
       transform="scale(0.99983373,1.0001663)"><tspan
         sodipodi:role="line"
         style="font-style:normal;font-variant:normal;font-weight:normal;font-stretch:normal;font-size:6.35px;font-family:Hershey-Noailles-old-french;-inkscape-font-specification:Hershey-Noailles-old-french;stroke-width:0.264583"
         x="67.62915"
         y="333.47037"
         id="tspan8702-9-7-7-5">doc 56</tspan></text>
    <text
       xml:space="preserve"
       style="font-style:normal;font-weight:normal;font-size:6.35px;line-height:1.25;font-family:sans-serif;fill:#000000;fill-opacity:1;stroke:none;stroke-width:0.264583"
       x="66.351418"
       y="357.77094"
       id="text8700-6-7-5-8-9"
       transform="scale(0.99983373,1.0001663)"><tspan
         sodipodi:role="line"
         style="font-style:normal;font-variant:normal;font-weight:normal;font-stretch:normal;font-size:6.35px;font-family:Hershey-Noailles-old-french;-inkscape-font-specification:Hershey-Noailles-old-french;stroke-width:0.264583"
         x="66.351418"
         y="357.77094"
         id="tspan8702-9-7-7-5-0">doc 32</tspan></text>
    <text
       xml:space="preserve"
       style="font-style:normal;font-weight:normal;font-size:6.35px;line-height:1.25;font-family:sans-serif;fill:#000000;fill-opacity:1;stroke:none;stroke-width:0.264583"
       x="67.4394"
       y="345.33676"
       id="text8700-6-7-5-8-9-2"
       transform="scale(0.99983373,1.0001663)"><tspan
         sodipodi:role="line"
         style="font-style:normal;font-variant:normal;font-weight:normal;font-stretch:normal;font-size:6.35px;font-family:Hershey-Noailles-old-french;-inkscape-font-specification:Hershey-Noailles-old-french;stroke-width:0.264583"
         x="67.4394"
         y="345.33676"
         id="tspan8702-9-7-7-5-0-4">doc 13</tspan></text>
    <text
       xml:space="preserve"
       style="font-style:normal;font-weight:normal;font-size:6.35px;line-height:1.25;font-family:sans-serif;fill:#000000;fill-opacity:1;stroke:none;stroke-width:0.264583"
       x="66.952431"
       y="369.63968"
       id="text8700-6-7-5-8-9-2-0"
       transform="scale(0.99983373,1.0001663)"><tspan
         sodipodi:role="line"
         style="font-style:normal;font-variant:normal;font-weight:normal;font-stretch:normal;font-size:6.35px;font-family:Hershey-Noailles-old-french;-inkscape-font-specification:Hershey-Noailles-old-french;stroke-width:0.264583"
         x="66.952431"
         y="369.63968"
         id="tspan8702-9-7-7-5-0-4-6">doc 02</tspan></text>
    <text
       xml:space="preserve"
       style="font-style:normal;font-weight:normal;font-size:6.35px;line-height:1.25;font-family:sans-serif;fill:#000000;fill-opacity:1;stroke:none;stroke-width:0.264583"
       x="67.007004"
       y="381.60748"
       id="text8700-6-7-5-8-9-2-0-7"
       transform="scale(0.99983373,1.0001663)"><tspan
         sodipodi:role="line"
         style="font-style:normal;font-variant:normal;font-weight:normal;font-stretch:normal;font-size:6.35px;font-family:Hershey-Noailles-old-french;-inkscape-font-specification:Hershey-Noailles-old-french;stroke-width:0.264583"
         x="67.007004"
         y="381.60748"
         id="tspan8702-9-7-7-5-0-4-6-3">doc 18</tspan></text>
    <text
       xml:space="preserve"
       style="font-style:normal;font-weight:normal;font-size:3.29928px;line-height:1.25;font-family:sans-serif;white-space:pre;inline-size:44.0291;fill:#000000;fill-opacity:1;stroke:none;stroke-width:0.123723"
       x="-32.320862"
       y="118.06271"
       id="text8700-6-7-6"
       transform="matrix(2.1381573,0,0,2.1388683,125.62244,-46.91088)"><tspan
         x="-32.320862"
         y="118.06271"
         id="tspan36711"><tspan
           style="font-family:Hershey-Noailles-old-french;-inkscape-font-specification:Hershey-Noailles-old-french"
           id="tspan36709">métadonnées 
</tspan></tspan><tspan
         x="-32.320862"
         y="122.58492"
         id="tspan36715"><tspan
   style="font-size:2.96935px;font-family:Hershey-Noailles-old-french;-inkscape-font-specification:Hershey-Noailles-old-french"
   id="tspan36713">(titre, date, etc.)</tspan>
</tspan><tspan
         x="-32.320862"
         y="126.9559"
         id="tspan36719"><tspan
           style="font-family:Hershey-Noailles-timesir-1-1;-inkscape-font-specification:Hershey-Noailles-timesir-1-1"
           id="tspan36717">metadata
</tspan></tspan><tspan
         x="-32.320862"
         y="131.47811"
         id="tspan36723"><tspan
           style="font-size:2.96935px;font-family:Hershey-Noailles-timesir-1-1;-inkscape-font-specification:Hershey-Noailles-timesir-1-1"
           id="tspan36721">(title, date, etc.)</tspan></tspan></text>
    <text
       xml:space="preserve"
       style="font-style:normal;font-weight:normal;font-size:4.98303px;line-height:1.25;font-family:sans-serif;white-space:pre;inline-size:44.0291;fill:#000000;fill-opacity:1;stroke:none;stroke-width:0.123723"
       x="-32.320862"
       y="118.06271"
       id="text8700-6-7-6-4"
       transform="matrix(2.1381573,0,0,2.1388683,103.70401,2.5159217)" />
    <text
       xml:space="preserve"
       style="font-style:normal;font-weight:normal;font-size:7.05556px;line-height:1.25;font-family:sans-serif;fill:#000000;fill-opacity:1;stroke:none;stroke-width:0.264583"
       x="66.252495"
       y="290.77716"
       id="text8700-6-7-6-1"
       transform="scale(0.99983373,1.0001663)"><tspan
         sodipodi:role="line"
         style="font-style:normal;font-variant:normal;font-weight:normal;font-stretch:normal;font-size:7.05556px;font-family:Hershey-Noailles-old-french;-inkscape-font-specification:Hershey-Noailles-old-french;stroke-width:0.264583"
         x="66.252495"
         y="290.77716"
         id="tspan8702-9-7-3-5">collections</tspan></text>
    <path
       style="fill:none;stroke:#000000;stroke-width:0.264583px;stroke-linecap:butt;stroke-linejoin:miter;stroke-opacity:1"
       d="m 37.775285,244.74545 c 0,0 1.132808,-3.86963 2.619619,0 1.486809,3.86961 2.548817,0.69454 3.044419,-0.49611 0.495603,-1.19065 1.55761,-1.09144 2.194816,0.59531 0.637204,1.68677 2.077668,2.05573 2.666953,0.37323 0.704596,-2.01172 2.312955,-1.72318 2.939928,-0.0274"
       id="path64427"
       sodipodi:nodetypes="cssssc" />
    <path
       style="fill:none;stroke:#000000;stroke-width:0.264583px;stroke-linecap:butt;stroke-linejoin:miter;stroke-opacity:1"
       d="m 38.30822,254.05822 c 0,0 1.132808,-3.86963 2.619618,0 1.486809,3.86961 2.548817,0.69454 3.044419,-0.4961 0.495604,-1.19066 1.557611,-1.09144 2.194816,0.59532 0.637205,1.68675 2.077668,2.05572 2.666954,0.37321 0.704595,-2.01171 2.312955,-1.72317 2.939928,-0.0274"
       id="path64427-7"
       sodipodi:nodetypes="cssssc" />
    <path
       style="fill:none;stroke:#000000;stroke-width:0.264583px;stroke-linecap:butt;stroke-linejoin:miter;stroke-opacity:1"
       d="m 57.368206,254.39986 c 0,0 1.132808,-3.86963 2.619619,0 1.486808,3.86961 2.548816,0.69454 3.044418,-0.4961 0.495604,-1.19066 1.557611,-1.09145 2.194816,0.59531 0.637205,1.68676 2.077667,2.05573 2.666952,0.37322 0.704595,-2.01172 2.312955,-1.72317 2.939928,-0.0274"
       id="path64427-7-9"
       sodipodi:nodetypes="cssssc" />
    <path
       style="fill:none;stroke:#000000;stroke-width:0.264583px;stroke-linecap:butt;stroke-linejoin:miter;stroke-opacity:1"
       d="m 76.19991,245.06151 c 0,0 1.132807,-3.86963 2.619618,0 1.486811,3.8696 2.548817,0.69454 3.044423,-0.49611 0.495599,-1.19065 1.557604,-1.09144 2.194809,0.59532 0.637208,1.68675 2.077667,2.05573 2.666954,0.37321 0.704595,-2.01171 2.312956,-1.72316 2.939932,-0.0274"
       id="path64427-7-9-7"
       sodipodi:nodetypes="cssssc" />
    <path
       style="fill:none;stroke:#000000;stroke-width:0.264583px;stroke-linecap:butt;stroke-linejoin:miter;stroke-opacity:1"
       d="m 76.31404,253.94433 c 0,0 1.132807,-3.86962 2.619618,0 1.486811,3.86961 2.548817,0.69455 3.044423,-0.4961 0.495599,-1.19065 1.557612,-1.09144 2.19481,0.59531 0.637208,1.68676 2.077674,2.05573 2.666953,0.37322 0.704596,-2.01171 2.312957,-1.72317 2.939933,-0.0274"
       id="path64427-7-9-7-0"
       sodipodi:nodetypes="cssssc" />
    <path
       style="fill:none;stroke:#000000;stroke-width:0.264583px;stroke-linecap:butt;stroke-linejoin:miter;stroke-opacity:1"
       d="m 57.824732,245.28927 c 0,0 1.132808,-3.86962 2.619618,0 1.486809,3.86961 2.548818,0.69454 3.044419,-0.4961 0.495604,-1.19065 1.55761,-1.09144 2.194817,0.59531 0.637204,1.68676 2.077666,2.05573 2.666951,0.37322 0.704596,-2.01172 2.312956,-1.72317 2.939928,-0.0274"
       id="path64427-7-9-4"
       sodipodi:nodetypes="cssssc" />
    <rect
       style="fill:none;fill-opacity:0.427451;stroke:#000000;stroke-width:0.264998;stroke-linecap:round;stroke-linejoin:round;stroke-miterlimit:4;stroke-dasharray:none;stroke-dashoffset:0;stroke-opacity:1"
       id="rect1951-5-59-7-7-8"
       width="25.507353"
       height="11.99801"
       x="64.354027"
       y="313.67291"
       ry="1.2242866" />
    <rect
       style="fill:none;fill-opacity:0.427451;stroke:#000000;stroke-width:0.264998;stroke-linecap:round;stroke-linejoin:round;stroke-miterlimit:4;stroke-dasharray:none;stroke-dashoffset:0;stroke-opacity:1"
       id="rect1951-5-3-5-8-6-4"
       width="25.507353"
       height="11.99801"
       x="64.354126"
       y="325.67096"
       ry="1.2242866" />
    <rect
       style="fill:none;fill-opacity:0.427451;stroke:#000000;stroke-width:0.264998;stroke-linecap:round;stroke-linejoin:round;stroke-miterlimit:4;stroke-dasharray:none;stroke-dashoffset:0;stroke-opacity:1"
       id="rect1951-5-59-5-1-4-4"
       width="25.507353"
       height="11.99801"
       x="64.354126"
       y="337.66895"
       ry="1.2242866" />
    <rect
       style="fill:none;fill-opacity:0.427451;stroke:#000000;stroke-width:0.264998;stroke-linecap:round;stroke-linejoin:round;stroke-miterlimit:4;stroke-dasharray:none;stroke-dashoffset:0;stroke-opacity:1"
       id="rect1951-5-3-5-5-8-7-8"
       width="25.507353"
       height="11.99801"
       x="64.354126"
       y="349.66699"
       ry="1.2242866" />
    <rect
       style="fill:none;fill-opacity:0.427451;stroke:#000000;stroke-width:0.264998;stroke-linecap:round;stroke-linejoin:round;stroke-miterlimit:4;stroke-dasharray:none;stroke-dashoffset:0;stroke-opacity:1"
       id="rect1951-5-7-66-0"
       width="25.507353"
       height="11.99801"
       x="64.354126"
       y="361.66501"
       ry="1.2242866" />
    <rect
       style="fill:none;fill-opacity:0.427451;stroke:#000000;stroke-width:0.264998;stroke-linecap:round;stroke-linejoin:round;stroke-miterlimit:4;stroke-dasharray:none;stroke-dashoffset:0;stroke-opacity:1"
       id="rect1951-5-3-1-6-1"
       width="25.507353"
       height="11.99801"
       x="64.354126"
       y="373.66306"
       ry="1.2242866" />
    <path
       style="fill:none;stroke:none;stroke-width:0.264583px;stroke-linecap:butt;stroke-linejoin:miter;stroke-opacity:1"
       d="m 213.48719,326.99232 c 0,0 3.21173,15.25573 14.85427,32.31807"
       id="path16498" />
    <path
       style="fill:none;stroke:none;stroke-width:0.264583px;stroke-linecap:butt;stroke-linejoin:miter;stroke-opacity:1"
       d="m 294.89876,401.90179 c 0,0 10.47979,2.98773 34.31313,-0.62158"
       id="path16918"
       sodipodi:nodetypes="cc" />
    <text
       xml:space="preserve"
       style="font-style:normal;font-weight:normal;font-size:7.05556px;line-height:1.25;font-family:sans-serif;fill:#000000;fill-opacity:1;stroke:none;stroke-width:0.264583"
       x="0.86179733"
       y="228.21274"
       id="text8700-6-03-2"
       transform="scale(0.99983373,1.0001663)"><tspan
         sodipodi:role="line"
         id="tspan8698-8-2-7"
         style="font-style:normal;font-variant:normal;font-weight:normal;font-stretch:normal;font-size:7.05556px;font-family:Hershey-Noailles-old-french;-inkscape-font-specification:Hershey-Noailles-old-french;stroke-width:0.264583"
         x="0.86179733"
         y="228.21274">fichier</tspan><tspan
         sodipodi:role="line"
         style="font-style:normal;font-variant:normal;font-weight:normal;font-stretch:normal;font-size:7.05556px;font-family:Hershey-Noailles-timesir-1-1;-inkscape-font-specification:Hershey-Noailles-timesir-1-1;stroke-width:0.264583"
         x="0.86179733"
         y="237.88354"
         id="tspan8702-9-6-3">file</tspan></text>
    <path
       style="fill:none;stroke:#000000;stroke-width:0.264583px;stroke-linecap:butt;stroke-linejoin:miter;stroke-opacity:1;marker-end:url(#marker1578)"
       d="M 5.3689576,266.55754 C 8.4877719,306.67809 31.92241,320.57986 61.46184,321.08371"
       id="path24229-8"
       sodipodi:nodetypes="cc" />
    <path
       style="fill:none;stroke:none;stroke-width:0.264583px;stroke-linecap:butt;stroke-linejoin:miter;stroke-opacity:1"
       d="m 8.8553665,272.27189 c 0,0 1.7375745,17.87217 8.4396395,24.82247"
       id="path16336" />
    <text
       xml:space="preserve"
       style="font-style:normal;font-weight:normal;font-size:6.35px;line-height:1.25;font-family:sans-serif;fill:#000000;fill-opacity:1;stroke:none;stroke-width:0.264583"
       id="text17499"
       transform="translate(1.2885285,-0.64426424)"><textPath
         xlink:href="#path16336"
         id="textPath18679"><tspan
           id="tspan17497"
           style="font-style:normal;font-variant:normal;font-weight:normal;font-stretch:normal;font-size:6.35px;font-family:Hershey-Noailles-old-french;-inkscape-font-specification:Hershey-Noailles-old-french;stroke-width:0.264583">ajouté à</tspan></textPath></text>
    <text
       xml:space="preserve"
       style="font-style:normal;font-weight:normal;font-size:6.35px;line-height:1.25;font-family:sans-serif;fill:#000000;fill-opacity:1;stroke:none;stroke-width:0.264583"
       id="text19221"
       transform="translate(1.7717266,-1.4495945)"><textPath
         xlink:href="#path20230"
         id="textPath21399"><tspan
           id="tspan19219"
           style="font-style:normal;font-variant:normal;font-weight:normal;font-stretch:normal;font-size:6.35px;font-family:Hershey-Noailles-timesir-1-1;-inkscape-font-specification:Hershey-Noailles-timesir-1-1;stroke-width:0.264583">added to</tspan></textPath></text>
    <path
       style="fill:none;stroke:none;stroke-width:0.264583px;stroke-linecap:butt;stroke-linejoin:miter;stroke-opacity:1"
       d="m 15.08972,313.10968 c 0,0 9.825029,14.01274 33.662805,15.94554"
       id="path20230"
       sodipodi:nodetypes="cc" />
    <text
       xml:space="preserve"
       transform="matrix(0.26458333,0,0,0.26458333,-68.342498,94.543042)"
       id="text26641"
       style="fill:black;fill-opacity:1;line-height:1.25;stroke:none;font-family:sans-serif;font-style:normal;font-weight:normal;font-size:40px;white-space:pre;shape-inside:url(#rect26643)" />
    <text
       xml:space="preserve"
       transform="matrix(0.26458333,0,0,0.26458333,-48.670713,97.046724)"
       id="text30890"
       style="font-style:normal;font-weight:normal;font-size:40px;line-height:1.25;font-family:sans-serif;white-space:pre;shape-inside:url(#rect30892);fill:#000000;fill-opacity:1;stroke:none"><tspan
         x="86.814453"
         y="100.15728"
         id="tspan36727"><tspan
           style="font-family:Hershey-Noailles-old-french;-inkscape-font-specification:Hershey-Noailles-old-french"
           id="tspan36725">Comment fonctionne la documenthèque ?
</tspan></tspan><tspan
         x="86.814453"
         y="154.98382"
         id="tspan36731"><tspan
           style="font-family:Hershey-Noailles-timesir-1-1;-inkscape-font-specification:Hershey-Noailles-timesir-1-1"
           id="tspan36729">How does the document library work ?</tspan></tspan></text>
  </g>
</svg>
